EE 243/Lab6/simulation/qsim/Lab6.msim.vcd
$comment
	File created using the following command:
		vcd file Lab6.msim.vcd -direction
$end
$date
	Tue Nov 01 14:26:39 2022
$end
$version
	ModelSim Version 10.5b
$end
$timescale
	1ps
$end

$scope module multiplier_vhd_vec_tst $end
$var wire 1 ! M [3] $end
$var wire 1 " M [2] $end
$var wire 1 # M [1] $end
$var wire 1 $ M [0] $end
$var wire 1 % P [7] $end
$var wire 1 & P [6] $end
$var wire 1 ' P [5] $end
$var wire 1 ( P [4] $end
$var wire 1 ) P [3] $end
$var wire 1 * P [2] $end
$var wire 1 + P [1] $end
$var wire 1 , P [0] $end
$var wire 1 - Q [3] $end
$var wire 1 . Q [2] $end
$var wire 1 / Q [1] $end
$var wire 1 0 Q [0] $end

$scope module i1 $end
$var wire 1 1 gnd $end
$var wire 1 2 vcc $end
$var wire 1 3 unknown $end
$var wire 1 4 devoe $end
$var wire 1 5 devclrn $end
$var wire 1 6 devpor $end
$var wire 1 7 ww_devoe $end
$var wire 1 8 ww_devclrn $end
$var wire 1 9 ww_devpor $end
$var wire 1 : ww_M [3] $end
$var wire 1 ; ww_M [2] $end
$var wire 1 < ww_M [1] $end
$var wire 1 = ww_M [0] $end
$var wire 1 > ww_Q [3] $end
$var wire 1 ? ww_Q [2] $end
$var wire 1 @ ww_Q [1] $end
$var wire 1 A ww_Q [0] $end
$var wire 1 B ww_P [7] $end
$var wire 1 C ww_P [6] $end
$var wire 1 D ww_P [5] $end
$var wire 1 E ww_P [4] $end
$var wire 1 F ww_P [3] $end
$var wire 1 G ww_P [2] $end
$var wire 1 H ww_P [1] $end
$var wire 1 I ww_P [0] $end
$var wire 1 J \P[0]~output_o\ $end
$var wire 1 K \P[1]~output_o\ $end
$var wire 1 L \P[2]~output_o\ $end
$var wire 1 M \P[3]~output_o\ $end
$var wire 1 N \P[4]~output_o\ $end
$var wire 1 O \P[5]~output_o\ $end
$var wire 1 P \P[6]~output_o\ $end
$var wire 1 Q \P[7]~output_o\ $end
$var wire 1 R \Q[0]~input_o\ $end
$var wire 1 S \M[0]~input_o\ $end
$var wire 1 T \P~0_combout\ $end
$var wire 1 U \M[1]~input_o\ $end
$var wire 1 V \Q[1]~input_o\ $end
$var wire 1 W \u1|A4|a1~combout\ $end
$var wire 1 X \Q[2]~input_o\ $end
$var wire 1 Y \u1|A4|a5~combout\ $end
$var wire 1 Z \M[2]~input_o\ $end
$var wire 1 [ \u2|A2~combout\ $end
$var wire 1 \ \u2|A4|S~combout\ $end
$var wire 1 ] \w1|A2|a1~combout\ $end
$var wire 1 ^ \Q[3]~input_o\ $end
$var wire 1 _ \w1|A2|a5~combout\ $end
$var wire 1 ` \M[3]~input_o\ $end
$var wire 1 a \u3|A2~combout\ $end
$var wire 1 b \u2|A4|Cout~0_combout\ $end
$var wire 1 c \u3|A4|S~combout\ $end
$var wire 1 d \w2|A2|S~combout\ $end
$var wire 1 e \N1|A2|a1~combout\ $end
$var wire 1 f \w2|A2|Cout~0_combout\ $end
$var wire 1 g \u3|A4|Cout~0_combout\ $end
$var wire 1 h \u4|A4|S~combout\ $end
$var wire 1 i \w3|A2|S~combout\ $end
$var wire 1 j \N1|A2|a5~combout\ $end
$var wire 1 k \N2|A2|S~combout\ $end
$var wire 1 l \N2|A2|Cout~0_combout\ $end
$var wire 1 m \u4|A4|a3~combout\ $end
$var wire 1 n \w3|A2|Cout~0_combout\ $end
$var wire 1 o \w4|A2|S~combout\ $end
$var wire 1 p \N3|A2|S~combout\ $end
$var wire 1 q \N3|A2|Cout~0_combout\ $end
$var wire 1 r \w4|A2|Cout~0_combout\ $end
$var wire 1 s \N4|A2|S~0_combout\ $end
$var wire 1 t \N4|A2|Cout~0_combout\ $end
$upscope $end
$upscope $end
$enddefinitions $end
#0
$dumpvars
01
12
x3
14
15
16
17
18
19
0J
0K
0L
0M
0N
0O
0P
0Q
0R
0S
0T
0U
0V
0W
0X
0Y
0Z
0[
0\
0]
0^
0_
0`
0a
0b
0c
0d
0e
0f
0g
0h
0i
0j
0k
0l
0m
0n
0o
0p
0q
0r
0s
0t
0!
0"
0#
0$
0-
0.
0/
00
0:
0;
0<
0=
0>
0?
0@
0A
0B
0C
0D
0E
0F
0G
0H
0I
0%
0&
0'
0(
0)
0*
0+
0,
$end
#10000
1$
10
1=
1A
1R
1S
1T
1J
1I
1,
#20000
0$
00
1#
1/
0=
1<
0A
1@
1V
0R
1U
0S
0T
1\
1]
0J
0I
1L
0,
1G
1*
#30000
1$
10
1=
1A
1R
1S
1T
1Y
0\
1b
1c
0]
1J
1d
1I
1,
1e
0L
0G
0*
1M
1F
1)
#40000
0$
00
0#
0/
1"
1.
0=
0<
1;
0A
0@
1?
1X
0V
0R
1Z
0U
0S
0T
0Y
1\
0b
1i
1k
0c
1]
0\
0]
0d
0J
0e
0I
1L
1N
0,
1G
1E
0L
1*
1(
0G
0M
0*
0F
0)
#50000
1$
10
1=
1A
1R
1S
1]
1T
1[
1\
0]
1_
1J
1L
1d
1I
1G
1,
1*
1e
0L
0G
0*
1M
1F
1)
#60000
0$
00
1#
1/
0=
1<
0A
1@
1V
0R
1U
0S
1]
0_
0d
1f
0T
0[
0\
1b
1c
0c
1g
0]
1\
0b
0i
1n
0e
1o
0k
1c
0g
1]
1h
1d
0f
0J
1L
1e
0h
0d
1f
1p
0I
1G
0M
0L
0,
1*
0e
0F
0G
1L
0N
0*
0)
1G
0E
1O
1M
1*
0(
1D
1F
0M
1)
1'
0F
0)
#70000
1$
10
1=
1A
1R
1S
0]
1_
1T
1Y
1[
1b
1d
1e
0c
1g
1J
0L
1h
0d
1I
0G
1,
0*
0e
1i
1M
1k
1F
1)
0M
0F
1N
0)
1E
1(
#80000
0$
00
0#
0/
0"
0.
1!
1-
0=
0<
0;
1:
0A
0@
0?
1>
1^
0X
0V
0R
1`
0Z
0U
0S
0T
0[
0Y
0\
1c
0g
1]
0_
1d
0f
0i
1s
0k
1i
0n
1e
0h
0]
0b
0c
0i
0o
1k
1P
1L
0J
0p
0k
0d
1C
1G
0I
0L
1M
0N
0,
1*
1&
0e
0G
1F
0E
1N
0*
1)
0(
1E
0N
0O
1(
0E
0D
0M
0(
0'
0F
0)
#90000
1$
10
1=
1A
1R
1S
1e
1T
1a
1c
1d
1J
1M
0e
1j
1I
1F
1,
1)
1k
0M
0F
1N
0)
1E
1(
#100000
0$
00
1#
1/
0=
1<
0A
1@
1V
0R
1U
0S
1e
0j
0k
1l
0T
0a
1\
1h
1i
1]
0c
1p
1k
0l
0p
0d
0k
1l
0J
0N
1M
1p
0e
0I
0E
1F
1N
1O
1L
0,
1)
0(
1E
1D
1G
0N
0O
1*
1(
1'
0E
0D
0M
1O
0(
0'
0F
1D
0)
1'
#110000
1$
10
1=
1A
1R
1S
1e
1T
1Y
1a
1c
0\
1b
0c
1g
0]
1d
1J
1M
0e
1j
0h
1m
0d
1I
1F
1,
1)
1e
0j
1o
0i
1k
0L
0p
1q
0l
0G
0M
0*
1p
0q
0s
1t
0F
1N
1M
0)
1s
0t
1E
1F
0O
1)
1(
0D
1Q
0P
1O
0'
1B
0C
1D
0Q
1P
1'
0&
1%
0B
1C
1&
0%
#120000
0$
00
0#
0/
1"
1.
0=
0<
1;
0A
0@
1?
1X
0V
0R
1Z
0U
0S
0e
0k
0p
1q
0T
0a
0Y
1\
0b
1h
0m
1i
0o
1r
1p
0q
1k
1o
0r
0i
1n
1]
0\
0g
1t
0h
0]
0o
1r
0k
0p
1q
0t
0J
0O
0N
0M
1t
1p
0q
1i
0n
0I
0D
0E
0F
1Q
1L
1N
1O
0,
0)
0(
0'
1o
0r
1k
0s
1B
1G
1E
1D
0Q
0O
0N
0L
1*
1(
1'
1%
1s
0t
0p
1q
0B
0D
0E
0G
1O
1Q
0*
0(
0'
0%
0s
1t
1D
1B
0P
1N
1'
1%
0C
1E
0O
0Q
1P
1(
0&
0D
0B
1C
1Q
0P
0'
1&
0%
1B
0C
0&
1%
#130000
1$
10
1=
1A
1R
1S
1]
1e
1T
1[
1a
1c
1\
0]
1_
1d
1J
1M
1L
0e
1j
0d
1f
1I
1F
1G
1,
1*
1)
0i
1n
1e
0j
0k
1l
0L
1p
0o
1r
0l
0G
0M
0*
1s
0q
0F
0N
1M
0)
0s
0E
1F
1O
1)
0(
1D
1P
1'
1C
0P
1&
0C
0&
#140000
0$
00
1#
1/
0=
1<
0A
1@
1V
0R
1U
0S
1]
0_
0e
1d
1k
0T
0[
0a
0\
1b
0c
1g
1h
1i
0h
1m
0]
1\
0b
1e
0f
1c
0g
1]
1o
0n
0k
1l
0J
1N
0M
1L
0o
1q
1h
0m
0d
1f
0I
1E
0F
1G
1M
0L
0,
1*
0)
1(
0e
1o
0r
1n
1s
0p
1F
0G
0N
1L
0*
1)
0o
1r
0s
1p
0E
1G
1*
0(
1s
0p
0O
1P
0M
0D
1C
0F
1O
0P
0)
0'
1&
1D
0C
0O
1P
1'
0&
0D
1C
0'
1&
#150000
1$
10
1=
1A
1R
1S
0]
1_
1e
1T
1Y
1[
1a
0c
1g
1b
1d
0e
1j
1c
0h
1m
0d
1J
1M
0L
1e
0j
1o
0i
1d
1k
1I
1F
0G
1,
0*
1)
0e
1j
1p
0l
0M
0p
0k
1l
0F
1N
1M
0)
1p
1E
1F
1O
0M
1)
1(
1D
0F
0N
0O
0)
1'
0E
0D
1O
0(
0'
1D
1'
#160000
0$
00
0#
0/
0"
0.
0!
0-
0=
0<
0;
0:
0A
0@
0?
0>
0^
0X
0V
0R
0`
0Z
0U
0S
0T
0[
0a
0Y
0\
0c
1h
0m
1]
0_
0d
1i
0n
0o
1e
0j
1k
0l
0p
0s
0q
0e
0r
0i
1n
0f
0]
1c
0g
0b
0c
0h
1d
1i
0n
1o
0k
0t
0P
0O
1N
1M
1L
0J
1p
0o
1k
1e
0i
0d
0C
0D
1E
1F
1G
0I
0L
0M
0,
1*
1)
1(
0'
0&
0e
0k
0p
0G
0F
0Q
0N
0*
0)
0B
0E
1M
1N
1O
0(
0%
1F
1E
1D
0O
0N
0M
1)
1(
1'
0D
0E
0F
0)
0(
0'
#170000
1$
10
1=
1A
1R
1S
1T
1J
1I
1,
#180000
0$
00
1#
1/
0=
1<
0A
1@
1V
0R
1U
0S
0T
1\
1]
0J
0I
1L
0,
1G
1*
#190000
1$
10
1=
1A
1R
1S
1T
1Y
0\
1b
1c
0]
1J
1d
1I
1,
1e
0L
0G
0*
1M
1F
1)
#200000
0$
00
0#
0/
1"
1.
0=
0<
1;
0A
0@
1?
1X
0V
0R
1Z
0U
0S
0T
0Y
1\
0b
1i
1k
0c
1]
0\
0]
0d
0J
0e
0I
1L
1N
0,
1G
1E
0L
1*
1(
0G
0M
0*
0F
0)
#210000
1$
10
1=
1A
1R
1S
1]
1T
1[
1\
0]
1_
1J
1L
1d
1I
1G
1,
1*
1e
0L
0G
0*
1M
1F
1)
#220000
0$
00
1#
1/
0=
1<
0A
1@
1V
0R
1U
0S
1]
0_
0d
1f
0T
0[
0\
1b
1c
0c
1g
0]
1\
0b
0i
1n
0e
1o
0k
1c
0g
1]
1h
1d
0f
0J
1L
1e
0h
0d
1f
1p
0I
1G
0M
0L
0,
1*
0e
0F
0G
1L
0N
0*
0)
1G
0E
1O
1M
1*
0(
1D
1F
0M
1)
1'
0F
0)
#230000
1$
10
1=
1A
1R
1S
0]
1_
1T
1Y
1[
1b
1d
1e
0c
1g
1J
0L
1h
0d
1I
0G
1,
0*
0e
1i
1M
1k
1F
1)
0M
0F
1N
0)
1E
1(
#240000
0$
00
0#
0/
0"
0.
1!
1-
0=
0<
0;
1:
0A
0@
0?
1>
1^
0X
0V
0R
1`
0Z
0U
0S
0T
0[
0Y
0\
1c
0g
1]
0_
1d
0f
0i
1s
0k
1i
0n
1e
0h
0]
0b
0c
0i
0o
1k
1P
1L
0J
0p
0k
0d
1C
1G
0I
0L
1M
0N
0,
1*
1&
0e
0G
1F
0E
1N
0*
1)
0(
1E
0N
0O
1(
0E
0D
0M
0(
0'
0F
0)
#250000
1$
10
1=
1A
1R
1S
1e
1T
1a
1c
1d
1J
1M
0e
1j
1I
1F
1,
1)
1k
0M
0F
1N
0)
1E
1(
#260000
0$
00
1#
1/
0=
1<
0A
1@
1V
0R
1U
0S
1e
0j
0k
1l
0T
0a
1\
1h
1i
1]
0c
1p
1k
0l
0p
0d
0k
1l
0J
0N
1M
1p
0e
0I
0E
1F
1N
1O
1L
0,
1)
0(
1E
1D
1G
0N
0O
1*
1(
1'
0E
0D
0M
1O
0(
0'
0F
1D
0)
1'
#270000
1$
10
1=
1A
1R
1S
1e
1T
1Y
1a
1c
0\
1b
0c
1g
0]
1d
1J
1M
0e
1j
0h
1m
0d
1I
1F
1,
1)
1e
0j
1o
0i
1k
0L
0p
1q
0l
0G
0M
0*
1p
0q
0s
1t
0F
1N
1M
0)
1s
0t
1E
1F
0O
1)
1(
0D
1Q
0P
1O
0'
1B
0C
1D
0Q
1P
1'
0&
1%
0B
1C
1&
0%
#280000
0$
00
0#
0/
1"
1.
0=
0<
1;
0A
0@
1?
1X
0V
0R
1Z
0U
0S
0e
0k
0p
1q
0T
0a
0Y
1\
0b
1h
0m
1i
0o
1r
1p
0q
1k
1o
0r
0i
1n
1]
0\
0g
1t
0h
0]
0o
1r
0k
0p
1q
0t
0J
0O
0N
0M
1t
1p
0q
1i
0n
0I
0D
0E
0F
1Q
1L
1N
1O
0,
0)
0(
0'
1o
0r
1k
0s
1B
1G
1E
1D
0Q
0O
0N
0L
1*
1(
1'
1%
1s
0t
0p
1q
0B
0D
0E
0G
1O
1Q
0*
0(
0'
0%
0s
1t
1D
1B
0P
1N
1'
1%
0C
1E
0O
0Q
1P
1(
0&
0D
0B
1C
1Q
0P
0'
1&
0%
1B
0C
0&
1%
#290000
1$
10
1=
1A
1R
1S
1]
1e
1T
1[
1a
1c
1\
0]
1_
1d
1J
1M
1L
0e
1j
0d
1f
1I
1F
1G
1,
1*
1)
0i
1n
1e
0j
0k
1l
0L
1p
0o
1r
0l
0G
0M
0*
1s
0q
0F
0N
1M
0)
0s
0E
1F
1O
1)
0(
1D
1P
1'
1C
0P
1&
0C
0&
#300000
0$
00
1#
1/
0=
1<
0A
1@
1V
0R
1U
0S
1]
0_
0e
1d
1k
0T
0[
0a
0\
1b
0c
1g
1h
1i
0h
1m
0]
1\
0b
1e
0f
1c
0g
1]
1o
0n
0k
1l
0J
1N
0M
1L
0o
1q
1h
0m
0d
1f
0I
1E
0F
1G
1M
0L
0,
1*
0)
1(
0e
1o
0r
1n
1s
0p
1F
0G
0N
1L
0*
1)
0o
1r
0s
1p
0E
1G
1*
0(
1s
0p
0O
1P
0M
0D
1C
0F
1O
0P
0)
0'
1&
1D
0C
0O
1P
1'
0&
0D
1C
0'
1&
#310000
1$
10
1=
1A
1R
1S
0]
1_
1e
1T
1Y
1[
1a
0c
1g
1b
1d
0e
1j
1c
0h
1m
0d
1J
1M
0L
1e
0j
1o
0i
1d
1k
1I
1F
0G
1,
0*
1)
0e
1j
1p
0l
0M
0p
0k
1l
0F
1N
1M
0)
1p
1E
1F
1O
0M
1)
1(
1D
0F
0N
0O
0)
1'
0E
0D
1O
0(
0'
1D
1'
#320000
0$
00
0#
0/
0"
0.
0!
0-
0=
0<
0;
0:
0A
0@
0?
0>
0^
0X
0V
0R
0`
0Z
0U
0S
0T
0[
0a
0Y
0\
0c
1h
0m
1]
0_
0d
1i
0n
0o
1e
0j
1k
0l
0p
0s
0q
0e
0r
0i
1n
0f
0]
1c
0g
0b
0c
0h
1d
1i
0n
1o
0k
0t
0P
0O
1N
1M
1L
0J
1p
0o
1k
1e
0i
0d
0C
0D
1E
1F
1G
0I
0L
0M
0,
1*
1)
1(
0'
0&
0e
0k
0p
0G
0F
0Q
0N
0*
0)
0B
0E
1M
1N
1O
0(
0%
1F
1E
1D
0O
0N
0M
1)
1(
1'
0D
0E
0F
0)
0(
0'
#330000
1$
10
1=
1A
1R
1S
1T
1J
1I
1,
#340000
0$
00
1#
1/
0=
1<
0A
1@
1V
0R
1U
0S
0T
1\
1]
0J
0I
1L
0,
1G
1*
#350000
1$
10
1=
1A
1R
1S
1T
1Y
0\
1b
1c
0]
1J
1d
1I
1,
1e
0L
0G
0*
1M
1F
1)
#360000
0$
00
0#
0/
1"
1.
0=
0<
1;
0A
0@
1?
1X
0V
0R
1Z
0U
0S
0T
0Y
1\
0b
1i
1k
0c
1]
0\
0]
0d
0J
0e
0I
1L
1N
0,
1G
1E
0L
1*
1(
0G
0M
0*
0F
0)
#370000
1$
10
1=
1A
1R
1S
1]
1T
1[
1\
0]
1_
1J
1L
1d
1I
1G
1,
1*
1e
0L
0G
0*
1M
1F
1)
#380000
0$
00
1#
1/
0=
1<
0A
1@
1V
0R
1U
0S
1]
0_
0d
1f
0T
0[
0\
1b
1c
0c
1g
0]
1\
0b
0i
1n
0e
1o
0k
1c
0g
1]
1h
1d
0f
0J
1L
1e
0h
0d
1f
1p
0I
1G
0M
0L
0,
1*
0e
0F
0G
1L
0N
0*
0)
1G
0E
1O
1M
1*
0(
1D
1F
0M
1)
1'
0F
0)
#390000
1$
10
1=
1A
1R
1S
0]
1_
1T
1Y
1[
1b
1d
1e
0c
1g
1J
0L
1h
0d
1I
0G
1,
0*
0e
1i
1M
1k
1F
1)
0M
0F
1N
0)
1E
1(
#400000
0$
00
0#
0/
0"
0.
1!
1-
0=
0<
0;
1:
0A
0@
0?
1>
1^
0X
0V
0R
1`
0Z
0U
0S
0T
0[
0Y
0\
1c
0g
1]
0_
1d
0f
0i
1s
0k
1i
0n
1e
0h
0]
0b
0c
0i
0o
1k
1P
1L
0J
0p
0k
0d
1C
1G
0I
0L
1M
0N
0,
1*
1&
0e
0G
1F
0E
1N
0*
1)
0(
1E
0N
0O
1(
0E
0D
0M
0(
0'
0F
0)
#410000
1$
10
1=
1A
1R
1S
1e
1T
1a
1c
1d
1J
1M
0e
1j
1I
1F
1,
1)
1k
0M
0F
1N
0)
1E
1(
#420000
0$
00
1#
1/
0=
1<
0A
1@
1V
0R
1U
0S
1e
0j
0k
1l
0T
0a
1\
1h
1i
1]
0c
1p
1k
0l
0p
0d
0k
1l
0J
0N
1M
1p
0e
0I
0E
1F
1N
1O
1L
0,
1)
0(
1E
1D
1G
0N
0O
1*
1(
1'
0E
0D
0M
1O
0(
0'
0F
1D
0)
1'
#430000
1$
10
1=
1A
1R
1S
1e
1T
1Y
1a
1c
0\
1b
0c
1g
0]
1d
1J
1M
0e
1j
0h
1m
0d
1I
1F
1,
1)
1e
0j
1o
0i
1k
0L
0p
1q
0l
0G
0M
0*
1p
0q
0s
1t
0F
1N
1M
0)
1s
0t
1E
1F
0O
1)
1(
0D
1Q
0P
1O
0'
1B
0C
1D
0Q
1P
1'
0&
1%
0B
1C
1&
0%
#440000
0$
00
0#
0/
1"
1.
0=
0<
1;
0A
0@
1?
1X
0V
0R
1Z
0U
0S
0e
0k
0p
1q
0T
0a
0Y
1\
0b
1h
0m
1i
0o
1r
1p
0q
1k
1o
0r
0i
1n
1]
0\
0g
1t
0h
0]
0o
1r
0k
0p
1q
0t
0J
0O
0N
0M
1t
1p
0q
1i
0n
0I
0D
0E
0F
1Q
1L
1N
1O
0,
0)
0(
0'
1o
0r
1k
0s
1B
1G
1E
1D
0Q
0O
0N
0L
1*
1(
1'
1%
1s
0t
0p
1q
0B
0D
0E
0G
1O
1Q
0*
0(
0'
0%
0s
1t
1D
1B
0P
1N
1'
1%
0C
1E
0O
0Q
1P
1(
0&
0D
0B
1C
1Q
0P
0'
1&
0%
1B
0C
0&
1%
#450000
1$
10
1=
1A
1R
1S
1]
1e
1T
1[
1a
1c
1\
0]
1_
1d
1J
1M
1L
0e
1j
0d
1f
1I
1F
1G
1,
1*
1)
0i
1n
1e
0j
0k
1l
0L
1p
0o
1r
0l
0G
0M
0*
1s
0q
0F
0N
1M
0)
0s
0E
1F
1O
1)
0(
1D
1P
1'
1C
0P
1&
0C
0&
#460000
0$
00
1#
1/
0=
1<
0A
1@
1V
0R
1U
0S
1]
0_
0e
1d
1k
0T
0[
0a
0\
1b
0c
1g
1h
1i
0h
1m
0]
1\
0b
1e
0f
1c
0g
1]
1o
0n
0k
1l
0J
1N
0M
1L
0o
1q
1h
0m
0d
1f
0I
1E
0F
1G
1M
0L
0,
1*
0)
1(
0e
1o
0r
1n
1s
0p
1F
0G
0N
1L
0*
1)
0o
1r
0s
1p
0E
1G
1*
0(
1s
0p
0O
1P
0M
0D
1C
0F
1O
0P
0)
0'
1&
1D
0C
0O
1P
1'
0&
0D
1C
0'
1&
#470000
1$
10
1=
1A
1R
1S
0]
1_
1e
1T
1Y
1[
1a
0c
1g
1b
1d
0e
1j
1c
0h
1m
0d
1J
1M
0L
1e
0j
1o
0i
1d
1k
1I
1F
0G
1,
0*
1)
0e
1j
1p
0l
0M
0p
0k
1l
0F
1N
1M
0)
1p
1E
1F
1O
0M
1)
1(
1D
0F
0N
0O
0)
1'
0E
0D
1O
0(
0'
1D
1'
#480000
0$
00
0#
0/
0"
0.
0!
0-
0=
0<
0;
0:
0A
0@
0?
0>
0^
0X
0V
0R
0`
0Z
0U
0S
0T
0[
0a
0Y
0\
0c
1h
0m
1]
0_
0d
1i
0n
0o
1e
0j
1k
0l
0p
0s
0q
0e
0r
0i
1n
0f
0]
1c
0g
0b
0c
0h
1d
1i
0n
1o
0k
0t
0P
0O
1N
1M
1L
0J
1p
0o
1k
1e
0i
0d
0C
0D
1E
1F
1G
0I
0L
0M
0,
1*
1)
1(
0'
0&
0e
0k
0p
0G
0F
0Q
0N
0*
0)
0B
0E
1M
1N
1O
0(
0%
1F
1E
1D
0O
0N
0M
1)
1(
1'
0D
0E
0F
0)
0(
0'
#490000
1$
10
1=
1A
1R
1S
1T
1J
1I
1,
#500000
0$
00
1#
1/
0=
1<
0A
1@
1V
0R
1U
0S
0T
1\
1]
0J
0I
1L
0,
1G
1*
#510000
1$
10
1=
1A
1R
1S
1T
1Y
0\
1b
1c
0]
1J
1d
1I
1,
1e
0L
0G
0*
1M
1F
1)
#520000
0$
00
0#
0/
1"
1.
0=
0<
1;
0A
0@
1?
1X
0V
0R
1Z
0U
0S
0T
0Y
1\
0b
1i
1k
0c
1]
0\
0]
0d
0J
0e
0I
1L
1N
0,
1G
1E
0L
1*
1(
0G
0M
0*
0F
0)
#530000
1$
10
1=
1A
1R
1S
1]
1T
1[
1\
0]
1_
1J
1L
1d
1I
1G
1,
1*
1e
0L
0G
0*
1M
1F
1)
#540000
0$
00
1#
1/
0=
1<
0A
1@
1V
0R
1U
0S
1]
0_
0d
1f
0T
0[
0\
1b
1c
0c
1g
0]
1\
0b
0i
1n
0e
1o
0k
1c
0g
1]
1h
1d
0f
0J
1L
1e
0h
0d
1f
1p
0I
1G
0M
0L
0,
1*
0e
0F
0G
1L
0N
0*
0)
1G
0E
1O
1M
1*
0(
1D
1F
0M
1)
1'
0F
0)
#550000
1$
10
1=
1A
1R
1S
0]
1_
1T
1Y
1[
1b
1d
1e
0c
1g
1J
0L
1h
0d
1I
0G
1,
0*
0e
1i
1M
1k
1F
1)
0M
0F
1N
0)
1E
1(
#560000
0$
00
0#
0/
0"
0.
1!
1-
0=
0<
0;
1:
0A
0@
0?
1>
1^
0X
0V
0R
1`
0Z
0U
0S
0T
0[
0Y
0\
1c
0g
1]
0_
1d
0f
0i
1s
0k
1i
0n
1e
0h
0]
0b
0c
0i
0o
1k
1P
1L
0J
0p
0k
0d
1C
1G
0I
0L
1M
0N
0,
1*
1&
0e
0G
1F
0E
1N
0*
1)
0(
1E
0N
0O
1(
0E
0D
0M
0(
0'
0F
0)
#570000
1$
10
1=
1A
1R
1S
1e
1T
1a
1c
1d
1J
1M
0e
1j
1I
1F
1,
1)
1k
0M
0F
1N
0)
1E
1(
#580000
0$
00
1#
1/
0=
1<
0A
1@
1V
0R
1U
0S
1e
0j
0k
1l
0T
0a
1\
1h
1i
1]
0c
1p
1k
0l
0p
0d
0k
1l
0J
0N
1M
1p
0e
0I
0E
1F
1N
1O
1L
0,
1)
0(
1E
1D
1G
0N
0O
1*
1(
1'
0E
0D
0M
1O
0(
0'
0F
1D
0)
1'
#590000
1$
10
1=
1A
1R
1S
1e
1T
1Y
1a
1c
0\
1b
0c
1g
0]
1d
1J
1M
0e
1j
0h
1m
0d
1I
1F
1,
1)
1e
0j
1o
0i
1k
0L
0p
1q
0l
0G
0M
0*
1p
0q
0s
1t
0F
1N
1M
0)
1s
0t
1E
1F
0O
1)
1(
0D
1Q
0P
1O
0'
1B
0C
1D
0Q
1P
1'
0&
1%
0B
1C
1&
0%
#600000
0$
00
0#
0/
1"
1.
0=
0<
1;
0A
0@
1?
1X
0V
0R
1Z
0U
0S
0e
0k
0p
1q
0T
0a
0Y
1\
0b
1h
0m
1i
0o
1r
1p
0q
1k
1o
0r
0i
1n
1]
0\
0g
1t
0h
0]
0o
1r
0k
0p
1q
0t
0J
0O
0N
0M
1t
1p
0q
1i
0n
0I
0D
0E
0F
1Q
1L
1N
1O
0,
0)
0(
0'
1o
0r
1k
0s
1B
1G
1E
1D
0Q
0O
0N
0L
1*
1(
1'
1%
1s
0t
0p
1q
0B
0D
0E
0G
1O
1Q
0*
0(
0'
0%
0s
1t
1D
1B
0P
1N
1'
1%
0C
1E
0O
0Q
1P
1(
0&
0D
0B
1C
1Q
0P
0'
1&
0%
1B
0C
0&
1%
#610000
1$
10
1=
1A
1R
1S
1]
1e
1T
1[
1a
1c
1\
0]
1_
1d
1J
1M
1L
0e
1j
0d
1f
1I
1F
1G
1,
1*
1)
0i
1n
1e
0j
0k
1l
0L
1p
0o
1r
0l
0G
0M
0*
1s
0q
0F
0N
1M
0)
0s
0E
1F
1O
1)
0(
1D
1P
1'
1C
0P
1&
0C
0&
#620000
0$
00
1#
1/
0=
1<
0A
1@
1V
0R
1U
0S
1]
0_
0e
1d
1k
0T
0[
0a
0\
1b
0c
1g
1h
1i
0h
1m
0]
1\
0b
1e
0f
1c
0g
1]
1o
0n
0k
1l
0J
1N
0M
1L
0o
1q
1h
0m
0d
1f
0I
1E
0F
1G
1M
0L
0,
1*
0)
1(
0e
1o
0r
1n
1s
0p
1F
0G
0N
1L
0*
1)
0o
1r
0s
1p
0E
1G
1*
0(
1s
0p
0O
1P
0M
0D
1C
0F
1O
0P
0)
0'
1&
1D
0C
0O
1P
1'
0&
0D
1C
0'
1&
#630000
1$
10
1=
1A
1R
1S
0]
1_
1e
1T
1Y
1[
1a
0c
1g
1b
1d
0e
1j
1c
0h
1m
0d
1J
1M
0L
1e
0j
1o
0i
1d
1k
1I
1F
0G
1,
0*
1)
0e
1j
1p
0l
0M
0p
0k
1l
0F
1N
1M
0)
1p
1E
1F
1O
0M
1)
1(
1D
0F
0N
0O
0)
1'
0E
0D
1O
0(
0'
1D
1'
#640000
0$
00
0#
0/
0"
0.
0!
0-
0=
0<
0;
0:
0A
0@
0?
0>
0^
0X
0V
0R
0`
0Z
0U
0S
0T
0[
0a
0Y
0\
0c
1h
0m
1]
0_
0d
1i
0n
0o
1e
0j
1k
0l
0p
0s
0q
0e
0r
0i
1n
0f
0]
1c
0g
0b
0c
0h
1d
1i
0n
1o
0k
0t
0P
0O
1N
1M
1L
0J
1p
0o
1k
1e
0i
0d
0C
0D
1E
1F
1G
0I
0L
0M
0,
1*
1)
1(
0'
0&
0e
0k
0p
0G
0F
0Q
0N
0*
0)
0B
0E
1M
1N
1O
0(
0%
1F
1E
1D
0O
0N
0M
1)
1(
1'
0D
0E
0F
0)
0(
0'
#650000
1$
10
1=
1A
1R
1S
1T
1J
1I
1,
#660000
0$
00
1#
1/
0=
1<
0A
1@
1V
0R
1U
0S
0T
1\
1]
0J
0I
1L
0,
1G
1*
#670000
1$
10
1=
1A
1R
1S
1T
1Y
0\
1b
1c
0]
1J
1d
1I
1,
1e
0L
0G
0*
1M
1F
1)
#680000
0$
00
0#
0/
1"
1.
0=
0<
1;
0A
0@
1?
1X
0V
0R
1Z
0U
0S
0T
0Y
1\
0b
1i
1k
0c
1]
0\
0]
0d
0J
0e
0I
1L
1N
0,
1G
1E
0L
1*
1(
0G
0M
0*
0F
0)
#690000
1$
10
1=
1A
1R
1S
1]
1T
1[
1\
0]
1_
1J
1L
1d
1I
1G
1,
1*
1e
0L
0G
0*
1M
1F
1)
#700000
0$
00
1#
1/
0=
1<
0A
1@
1V
0R
1U
0S
1]
0_
0d
1f
0T
0[
0\
1b
1c
0c
1g
0]
1\
0b
0i
1n
0e
1o
0k
1c
0g
1]
1h
1d
0f
0J
1L
1e
0h
0d
1f
1p
0I
1G
0M
0L
0,
1*
0e
0F
0G
1L
0N
0*
0)
1G
0E
1O
1M
1*
0(
1D
1F
0M
1)
1'
0F
0)
#710000
1$
10
1=
1A
1R
1S
0]
1_
1T
1Y
1[
1b
1d
1e
0c
1g
1J
0L
1h
0d
1I
0G
1,
0*
0e
1i
1M
1k
1F
1)
0M
0F
1N
0)
1E
1(
#720000
0$
00
0#
0/
0"
0.
1!
1-
0=
0<
0;
1:
0A
0@
0?
1>
1^
0X
0V
0R
1`
0Z
0U
0S
0T
0[
0Y
0\
1c
0g
1]
0_
1d
0f
0i
1s
0k
1i
0n
1e
0h
0]
0b
0c
0i
0o
1k
1P
1L
0J
0p
0k
0d
1C
1G
0I
0L
1M
0N
0,
1*
1&
0e
0G
1F
0E
1N
0*
1)
0(
1E
0N
0O
1(
0E
0D
0M
0(
0'
0F
0)
#730000
1$
10
1=
1A
1R
1S
1e
1T
1a
1c
1d
1J
1M
0e
1j
1I
1F
1,
1)
1k
0M
0F
1N
0)
1E
1(
