EE 243/Lab_9_attp2/simulation/qsim/lab9attp2.msim.vcd
$comment
	File created using the following command:
		vcd file lab9attp2.msim.vcd -direction
$end
$date
	Tue Nov 29 14:59:28 2022
$end
$version
	ModelSim Version 10.5b
$end
$timescale
	1ps
$end

$scope module lab9attp2_vhd_vec_tst $end
$var wire 1 ! CLOCK_50 $end
$var wire 1 " pin_name1 $end
$var wire 1 # pin_name2 $end
$var wire 1 $ pin_name3 $end
$var wire 1 % pin_name4 $end
$var wire 1 & pin_name5 $end
$var wire 1 ' pin_name6 $end
$var wire 1 ( Q [4] $end
$var wire 1 ) Q [3] $end
$var wire 1 * Q [2] $end
$var wire 1 + Q [1] $end

$scope module i1 $end
$var wire 1 , gnd $end
$var wire 1 - vcc $end
$var wire 1 . unknown $end
$var wire 1 / devoe $end
$var wire 1 0 devclrn $end
$var wire 1 1 devpor $end
$var wire 1 2 ww_devoe $end
$var wire 1 3 ww_devclrn $end
$var wire 1 4 ww_devpor $end
$var wire 1 5 ww_pin_name1 $end
$var wire 1 6 ww_Q [4] $end
$var wire 1 7 ww_Q [3] $end
$var wire 1 8 ww_Q [2] $end
$var wire 1 9 ww_Q [1] $end
$var wire 1 : ww_CLOCK_50 $end
$var wire 1 ; ww_pin_name2 $end
$var wire 1 < ww_pin_name3 $end
$var wire 1 = ww_pin_name4 $end
$var wire 1 > ww_pin_name5 $end
$var wire 1 ? ww_pin_name6 $end
$var wire 1 @ \CLOCK_50~inputclkctrl_INCLK_bus\ [3] $end
$var wire 1 A \CLOCK_50~inputclkctrl_INCLK_bus\ [2] $end
$var wire 1 B \CLOCK_50~inputclkctrl_INCLK_bus\ [1] $end
$var wire 1 C \CLOCK_50~inputclkctrl_INCLK_bus\ [0] $end
$var wire 1 D \pin_name1~output_o\ $end
$var wire 1 E \Q[4]~output_o\ $end
$var wire 1 F \Q[3]~output_o\ $end
$var wire 1 G \Q[2]~output_o\ $end
$var wire 1 H \Q[1]~output_o\ $end
$var wire 1 I \pin_name2~output_o\ $end
$var wire 1 J \pin_name3~output_o\ $end
$var wire 1 K \pin_name4~output_o\ $end
$var wire 1 L \pin_name5~output_o\ $end
$var wire 1 M \pin_name6~output_o\ $end
$var wire 1 N \CLOCK_50~input_o\ $end
$var wire 1 O \CLOCK_50~inputclkctrl_outclk\ $end
$var wire 1 P \inst2|sub|34~0_combout\ $end
$var wire 1 Q \inst2|sub|34~q\ $end
$var wire 1 R \inst2|sub|115~combout\ $end
$var wire 1 S \inst2|sub|111~q\ $end
$var wire 1 T \inst2|sub|126~combout\ $end
$var wire 1 U \inst2|sub|122~q\ $end
$var wire 1 V \inst2|sub|137~combout\ $end
$var wire 1 W \inst2|sub|134~q\ $end
$var wire 1 X \inst4|sub|68~0_combout\ $end
$var wire 1 Y \inst4|sub|68~combout\ $end
$var wire 1 Z \inst4|sub|34~q\ $end
$var wire 1 [ \inst11~0_combout\ $end
$var wire 1 \ \inst4|sub|115~combout\ $end
$var wire 1 ] \inst4|sub|111~q\ $end
$var wire 1 ^ \inst4|sub|130~0_combout\ $end
$var wire 1 _ \inst4|sub|126~combout\ $end
$var wire 1 ` \inst4|sub|122~q\ $end
$var wire 1 a \inst4|sub|137~combout\ $end
$var wire 1 b \inst4|sub|134~q\ $end
$var wire 1 c \inst5|sub|68~combout\ $end
$var wire 1 d \inst5|sub|34~q\ $end
$var wire 1 e \inst13~0_combout\ $end
$var wire 1 f \inst5|sub|115~combout\ $end
$var wire 1 g \inst5|sub|111~q\ $end
$var wire 1 h \inst5|sub|130~0_combout\ $end
$var wire 1 i \inst5|sub|126~combout\ $end
$var wire 1 j \inst5|sub|122~q\ $end
$var wire 1 k \inst5|sub|137~combout\ $end
$var wire 1 l \inst5|sub|134~q\ $end
$var wire 1 m \inst15~0_combout\ $end
$var wire 1 n \inst17~combout\ $end
$var wire 1 o \inst6|sub|68~combout\ $end
$var wire 1 p \inst6|sub|34~q\ $end
$var wire 1 q \inst6|sub|115~combout\ $end
$var wire 1 r \inst6|sub|111~q\ $end
$var wire 1 s \inst6|sub|130~0_combout\ $end
$var wire 1 t \inst6|sub|126~combout\ $end
$var wire 1 u \inst6|sub|122~q\ $end
$var wire 1 v \inst6|sub|137~combout\ $end
$var wire 1 w \inst6|sub|134~q\ $end
$var wire 1 x \inst19|Mux6~6_combout\ $end
$var wire 1 y \inst9|32~q\ $end
$var wire 1 z \inst19|Mux5~6_combout\ $end
$var wire 1 { \inst9|33~q\ $end
$var wire 1 | \inst19|Mux4~6_combout\ $end
$var wire 1 } \inst9|34~q\ $end
$var wire 1 ~ \inst9|35~q\ $end
$var wire 1 !! \inst19|Mux2~6_combout\ $end
$var wire 1 "! \inst9|30~q\ $end
$var wire 1 #! \inst19|Mux1~6_combout\ $end
$var wire 1 $! \inst9|31~q\ $end
$upscope $end
$upscope $end
$enddefinitions $end
#0
$dumpvars
0!
0"
0#
0$
0%
0&
0'
0,
1-
x.
1/
10
11
12
13
14
05
0:
0;
0<
0=
0>
0?
0D
0E
0F
0G
0H
0I
0J
0K
0L
0M
0N
0O
1P
0Q
0R
0S
0T
0U
0V
0W
1X
0Y
0Z
0[
0\
0]
0^
0_
0`
0a
0b
0c
0d
0e
0f
0g
0h
0i
0j
0k
0l
0m
0n
0o
0p
0q
0r
0s
0t
0u
0v
0w
0x
0y
0z
0{
0|
0}
0~
0!!
0"!
0#!
0$!
06
07
08
09
1@
1A
1B
0C
0(
0)
0*
0+
$end
#5000
1!
1:
1N
1C
1O
1Q
0P
1R
#10000
0!
0:
0N
0C
0O
#15000
1!
1:
1N
1C
1O
0Q
1S
1P
#20000
0!
0:
0N
0C
0O
#25000
1!
1:
1N
1C
1O
1Q
0P
0R
1T
#30000
0!
0:
0N
0C
0O
#35000
1!
1:
1N
1C
1O
0Q
0S
1U
1P
#40000
0!
0:
0N
0C
0O
#45000
1!
1:
1N
1C
1O
1Q
0P
1R
#50000
0!
0:
0N
0C
0O
#55000
1!
1:
1N
1C
1O
0Q
1S
1P
#60000
0!
0:
0N
0C
0O
#65000
1!
1:
1N
1C
1O
1Q
0P
0R
0T
1V
#70000
0!
0:
0N
0C
0O
#75000
1!
1:
1N
1C
1O
0Q
0S
0U
1W
1P
#80000
0!
0:
0N
0C
0O
#85000
1!
1:
1N
1C
1O
1Q
0P
0V
0X
1[
1Y
1H
19
1+
#90000
0!
0:
0N
0C
0O
#95000
1!
1:
1N
1C
1O
0Q
0W
1Z
0Y
1\
1P
1X
0[
0\
1Y
0H
09
0+
#100000
0!
0:
0N
0C
0O
#105000
1!
1:
1N
1C
1O
1Q
0P
1R
#110000
0!
0:
0N
0C
0O
#115000
1!
1:
1N
1C
1O
0Q
1S
1P
#120000
0!
0:
0N
0C
0O
#125000
1!
1:
1N
1C
1O
1Q
0P
0R
1T
#130000
0!
0:
0N
0C
0O
#135000
1!
1:
1N
1C
1O
0Q
0S
1U
1P
#140000
0!
0:
0N
0C
0O
#145000
1!
1:
1N
1C
1O
1Q
0P
1R
#150000
0!
0:
0N
0C
0O
#155000
1!
1:
1N
1C
1O
0Q
1S
1P
#160000
0!
0:
0N
0C
0O
#165000
1!
1:
1N
1C
1O
1Q
0P
0R
0T
1V
#170000
0!
0:
0N
0C
0O
#175000
1!
1:
1N
1C
1O
0Q
0S
0U
1W
1P
#180000
0!
0:
0N
0C
0O
#185000
1!
1:
1N
1C
1O
1Q
0P
0V
0X
1[
1\
0Y
1H
19
1+
#190000
0!
0:
0N
0C
0O
#195000
1!
1:
1N
1C
1O
0Q
0W
0Z
1]
1Y
1P
1X
0[
0Y
0H
09
0+
#200000
0!
0:
0N
0C
0O
#205000
1!
1:
1N
1C
1O
1Q
0P
1R
#210000
0!
0:
0N
0C
0O
#215000
1!
1:
1N
1C
1O
0Q
1S
1P
#220000
0!
0:
0N
0C
0O
#225000
1!
1:
1N
1C
1O
1Q
0P
0R
1T
#230000
0!
0:
0N
0C
0O
#235000
1!
1:
1N
1C
1O
0Q
0S
1U
1P
#240000
0!
0:
0N
0C
0O
#245000
1!
1:
1N
1C
1O
1Q
0P
1R
#250000
0!
0:
0N
0C
0O
#255000
1!
1:
1N
1C
1O
0Q
1S
1P
#260000
0!
0:
0N
0C
0O
#265000
1!
1:
1N
1C
1O
1Q
0P
0R
0T
1V
#270000
0!
0:
0N
0C
0O
#275000
1!
1:
1N
1C
1O
0Q
0S
0U
1W
1P
#280000
0!
0:
0N
0C
0O
#285000
1!
1:
1N
1C
1O
1Q
0P
0V
0X
1[
1Y
1H
19
1+
#290000
0!
0:
0N
0C
0O
#295000
1!
1:
1N
1C
1O
0Q
0W
1Z
0Y
0\
1P
1X
0[
1\
1Y
0H
09
0+
#300000
0!
0:
0N
0C
0O
#305000
1!
1:
1N
1C
1O
1Q
0P
1R
#310000
0!
0:
0N
0C
0O
#315000
1!
1:
1N
1C
1O
0Q
1S
1P
#320000
0!
0:
0N
0C
0O
#325000
1!
1:
1N
1C
1O
1Q
0P
0R
1T
#330000
0!
0:
0N
0C
0O
#335000
1!
1:
1N
1C
1O
0Q
0S
1U
1P
#340000
0!
0:
0N
0C
0O
#345000
1!
1:
1N
1C
1O
1Q
0P
1R
#350000
0!
0:
0N
0C
0O
#355000
1!
1:
1N
1C
1O
0Q
1S
1P
#360000
0!
0:
0N
0C
0O
#365000
1!
1:
1N
1C
1O
1Q
0P
0R
0T
1V
#370000
0!
0:
0N
0C
0O
#375000
1!
1:
1N
1C
1O
0Q
0S
0U
1W
1P
#380000
0!
0:
0N
0C
0O
#385000
1!
1:
1N
1C
1O
1Q
0P
0V
0X
1[
1^
1_
0\
0Y
1H
19
1+
#390000
0!
0:
0N
0C
0O
#395000
1!
1:
1N
1C
1O
0Q
0W
0Z
0]
1`
0_
1a
1Y
1P
1X
0[
0^
1_
0a
0Y
0H
09
0+
#400000
0!
0:
0N
0C
0O
#405000
1!
1:
1N
1C
1O
1Q
0P
1R
#410000
0!
0:
0N
0C
0O
#415000
1!
1:
1N
1C
1O
0Q
1S
1P
#420000
0!
0:
0N
0C
0O
#425000
1!
1:
1N
1C
1O
1Q
0P
0R
1T
#430000
0!
0:
0N
0C
0O
#435000
1!
1:
1N
1C
1O
0Q
0S
1U
1P
#440000
0!
0:
0N
0C
0O
#445000
1!
1:
1N
1C
1O
1Q
0P
1R
#450000
0!
0:
0N
0C
0O
#455000
1!
1:
1N
1C
1O
0Q
1S
1P
#460000
0!
0:
0N
0C
0O
#465000
1!
1:
1N
1C
1O
1Q
0P
0R
0T
1V
#470000
0!
0:
0N
0C
0O
#475000
1!
1:
1N
1C
1O
0Q
0S
0U
1W
1P
#480000
0!
0:
0N
0C
0O
#485000
1!
1:
1N
1C
1O
1Q
0P
0V
0X
1[
1Y
1H
19
1+
#490000
0!
0:
0N
0C
0O
#495000
1!
1:
1N
1C
1O
0Q
0W
1Z
0Y
1\
1P
1X
0[
0\
1Y
0H
09
0+
#500000
0!
0:
0N
0C
0O
#505000
1!
1:
1N
1C
1O
1Q
0P
1R
#510000
0!
0:
0N
0C
0O
#515000
1!
1:
1N
1C
1O
0Q
1S
1P
#520000
0!
0:
0N
0C
0O
#525000
1!
1:
1N
1C
1O
1Q
0P
0R
1T
#530000
0!
0:
0N
0C
0O
#535000
1!
1:
1N
1C
1O
0Q
0S
1U
1P
#540000
0!
0:
0N
0C
0O
#545000
1!
1:
1N
1C
1O
1Q
0P
1R
#550000
0!
0:
0N
0C
0O
#555000
1!
1:
1N
1C
1O
0Q
1S
1P
#560000
0!
0:
0N
0C
0O
#565000
1!
1:
1N
1C
1O
1Q
0P
0R
0T
1V
#570000
0!
0:
0N
0C
0O
#575000
1!
1:
1N
1C
1O
0Q
0S
0U
1W
1P
#580000
0!
0:
0N
0C
0O
#585000
1!
1:
1N
1C
1O
1Q
0P
0V
0X
1[
1\
0Y
1H
19
1+
#590000
0!
0:
0N
0C
0O
#595000
1!
1:
1N
1C
1O
0Q
0W
0Z
1]
1Y
1P
1X
0[
0Y
0H
09
0+
#600000
0!
0:
0N
0C
0O
#605000
1!
1:
1N
1C
1O
1Q
0P
1R
#610000
0!
0:
0N
0C
0O
#615000
1!
1:
1N
1C
1O
0Q
1S
1P
#620000
0!
0:
0N
0C
0O
#625000
1!
1:
1N
1C
1O
1Q
0P
0R
1T
#630000
0!
0:
0N
0C
0O
#635000
1!
1:
1N
1C
1O
0Q
0S
1U
1P
#640000
0!
0:
0N
0C
0O
#645000
1!
1:
1N
1C
1O
1Q
0P
1R
#650000
0!
0:
0N
0C
0O
#655000
1!
1:
1N
1C
1O
0Q
1S
1P
#660000
0!
0:
0N
0C
0O
#665000
1!
1:
1N
1C
1O
1Q
0P
0R
0T
1V
#670000
0!
0:
0N
0C
0O
#675000
1!
1:
1N
1C
1O
0Q
0S
0U
1W
1P
#680000
0!
0:
0N
0C
0O
#685000
1!
1:
1N
1C
1O
1Q
0P
0V
0X
1[
1Y
1H
19
1+
#690000
0!
0:
0N
0C
0O
#695000
1!
1:
1N
1C
1O
0Q
0W
1Z
0Y
0\
1P
1X
0[
1\
1Y
0H
09
0+
#700000
0!
0:
0N
0C
0O
#705000
1!
1:
1N
1C
1O
1Q
0P
1R
#710000
0!
0:
0N
0C
0O
#715000
1!
1:
1N
1C
1O
0Q
1S
1P
#720000
0!
0:
0N
0C
0O
#725000
1!
1:
1N
1C
1O
1Q
0P
0R
1T
#730000
0!
0:
0N
0C
0O
#735000
1!
1:
1N
1C
1O
0Q
0S
1U
1P
#740000
0!
0:
0N
0C
0O
#745000
1!
1:
1N
1C
1O
1Q
0P
1R
#750000
0!
0:
0N
0C
0O
#755000
1!
1:
1N
1C
1O
0Q
1S
1P
#760000
0!
0:
0N
0C
0O
#765000
1!
1:
1N
1C
1O
1Q
0P
0R
0T
1V
#770000
0!
0:
0N
0C
0O
#775000
1!
1:
1N
1C
1O
0Q
0S
0U
1W
1P
#780000
0!
0:
0N
0C
0O
#785000
1!
1:
1N
1C
1O
1Q
0P
0V
0X
1[
1^
0_
1a
0\
0Y
1H
19
1+
#790000
0!
0:
0N
0C
0O
#795000
1!
1:
1N
1C
1O
0Q
0W
0Z
0]
0`
1b
1_
1Y
1P
1X
0[
0^
0_
0Y
0H
09
0+
#800000
0!
0:
0N
0C
0O
#805000
1!
1:
1N
1C
1O
1Q
0P
1R
#810000
0!
0:
0N
0C
0O
#815000
1!
1:
1N
1C
1O
0Q
1S
1P
#820000
0!
0:
0N
0C
0O
#825000
1!
1:
1N
1C
1O
1Q
0P
0R
1T
#830000
0!
0:
0N
0C
0O
#835000
1!
1:
1N
1C
1O
0Q
0S
1U
1P
#840000
0!
0:
0N
0C
0O
#845000
1!
1:
1N
1C
1O
1Q
0P
1R
#850000
0!
0:
0N
0C
0O
#855000
1!
1:
1N
1C
1O
0Q
1S
1P
#860000
0!
0:
0N
0C
0O
#865000
1!
1:
1N
1C
1O
1Q
0P
0R
0T
1V
#870000
0!
0:
0N
0C
0O
#875000
1!
1:
1N
1C
1O
0Q
0S
0U
1W
1P
#880000
0!
0:
0N
0C
0O
#885000
1!
1:
1N
1C
1O
1Q
0P
0V
0X
1[
1Y
1H
19
1+
#890000
0!
0:
0N
0C
0O
#895000
1!
1:
1N
1C
1O
0Q
0W
1Z
0Y
1\
1P
1X
0[
0\
1Y
0H
09
0+
#900000
0!
0:
0N
0C
0O
#905000
1!
1:
1N
1C
1O
1Q
0P
1R
#910000
0!
0:
0N
0C
0O
#915000
1!
1:
1N
1C
1O
0Q
1S
1P
#920000
0!
0:
0N
0C
0O
#925000
1!
1:
1N
1C
1O
1Q
0P
0R
1T
#930000
0!
0:
0N
0C
0O
#935000
1!
1:
1N
1C
1O
0Q
0S
1U
1P
#940000
0!
0:
0N
0C
0O
#945000
1!
1:
1N
1C
1O
1Q
0P
1R
#950000
0!
0:
0N
0C
0O
#955000
1!
1:
1N
1C
1O
0Q
1S
1P
#960000
0!
0:
0N
0C
0O
#965000
1!
1:
1N
1C
1O
1Q
0P
0R
0T
1V
#970000
0!
0:
0N
0C
0O
#975000
1!
1:
1N
1C
1O
0Q
0S
0U
1W
1P
#980000
0!
0:
0N
0C
0O
#985000
1!
1:
1N
1C
1O
1Q
0P
0V
0X
1[
1\
0Y
1H
19
1+
#990000
0!
0:
0N
0C
0O
#995000
1!
1:
1N
1C
1O
0Q
0W
0Z
1]
0a
1c
1e
1!!
0\
1P
1X
0[
1x
1#!
0H
1G
09
18
0+
1*
#1000000
0!
0:
0N
0C
0O
#1005000
1!
1:
1N
1C
1O
1Q
0]
0b
1d
1y
1~
1"!
1$!
1f
0e
0!!
0P
1R
0f
0x
0#!
1M
1L
1K
1D
1?
1>
1=
15
0G
1'
1&
1%
1"
08
0*
#1010000
0!
0:
0N
0C
0O
#1015000
1!
1:
1N
1C
1O
0Q
1S
0y
0~
0"!
0$!
1P
0M
0L
0K
0D
0?
0>
0=
05
0'
0&
0%
0"
#1020000
0!
0:
0N
0C
0O
#1025000
1!
1:
1N
1C
1O
1Q
0P
0R
1T
#1030000
0!
0:
0N
0C
0O
#1035000
1!
1:
1N
1C
1O
0Q
0S
1U
1P
#1040000
0!
0:
0N
0C
0O
#1045000
1!
1:
1N
1C
1O
1Q
0P
1R
#1050000
0!
0:
0N
0C
0O
#1055000
1!
1:
1N
1C
1O
0Q
1S
1P
#1060000
0!
0:
0N
0C
0O
#1065000
1!
1:
1N
1C
1O
1Q
0P
0R
0T
1V
#1070000
0!
0:
0N
0C
0O
#1075000
1!
1:
1N
1C
1O
0Q
0S
0U
1W
1P
#1080000
0!
0:
0N
0C
0O
#1085000
1!
1:
1N
1C
1O
1Q
0P
0V
0X
1[
1Y
1H
19
1+
#1090000
0!
0:
0N
0C
0O
#1095000
1!
1:
1N
1C
1O
0Q
0W
1Z
0Y
1\
1P
1X
0[
0\
1Y
0H
09
0+
#1100000
0!
0:
0N
0C
0O
#1105000
1!
1:
1N
1C
1O
1Q
0P
1R
#1110000
0!
0:
0N
0C
0O
#1115000
1!
1:
1N
1C
1O
0Q
1S
1P
#1120000
0!
0:
0N
0C
0O
#1125000
1!
1:
1N
1C
1O
1Q
0P
0R
1T
#1130000
0!
0:
0N
0C
0O
#1135000
1!
1:
1N
1C
1O
0Q
0S
1U
1P
#1140000
0!
0:
0N
0C
0O
#1145000
1!
1:
1N
1C
1O
1Q
0P
1R
#1150000
0!
0:
0N
0C
0O
#1155000
1!
1:
1N
1C
1O
0Q
1S
1P
#1160000
0!
0:
0N
0C
0O
#1165000
1!
1:
1N
1C
1O
1Q
0P
0R
0T
1V
#1170000
0!
0:
0N
0C
0O
#1175000
1!
1:
1N
1C
1O
0Q
0S
0U
1W
1P
#1180000
0!
0:
0N
0C
0O
#1185000
1!
1:
1N
1C
1O
1Q
0P
0V
0X
1[
1\
0Y
1H
19
1+
#1190000
0!
0:
0N
0C
0O
#1195000
1!
1:
1N
1C
1O
0Q
0W
0Z
1]
1Y
1P
1X
0[
0Y
0H
09
0+
#1200000
0!
0:
0N
0C
0O
#1205000
1!
1:
1N
1C
1O
1Q
0P
1R
#1210000
0!
0:
0N
0C
0O
#1215000
1!
1:
1N
1C
1O
0Q
1S
1P
#1220000
0!
0:
0N
0C
0O
#1225000
1!
1:
1N
1C
1O
1Q
0P
0R
1T
#1230000
0!
0:
0N
0C
0O
#1235000
1!
1:
1N
1C
1O
0Q
0S
1U
1P
#1240000
0!
0:
0N
0C
0O
#1245000
1!
1:
1N
1C
1O
1Q
0P
1R
#1250000
0!
0:
0N
0C
0O
#1255000
1!
1:
1N
1C
1O
0Q
1S
1P
#1260000
0!
0:
0N
0C
0O
#1265000
1!
1:
1N
1C
1O
1Q
0P
0R
0T
1V
#1270000
0!
0:
0N
0C
0O
#1275000
1!
1:
1N
1C
1O
0Q
0S
0U
1W
1P
#1280000
0!
0:
0N
0C
0O
#1285000
1!
1:
1N
1C
1O
1Q
0P
0V
0X
1[
1Y
1H
19
1+
#1290000
0!
0:
0N
0C
0O
#1295000
1!
1:
1N
1C
1O
0Q
0W
1Z
0Y
0\
1P
1X
0[
1\
1Y
0H
09
0+
#1300000
0!
0:
0N
0C
0O
#1305000
1!
1:
1N
1C
1O
1Q
0P
1R
#1310000
0!
0:
0N
0C
0O
#1315000
1!
1:
1N
1C
1O
0Q
1S
1P
#1320000
0!
0:
0N
0C
0O
#1325000
1!
1:
1N
1C
1O
1Q
0P
0R
1T
#1330000
0!
0:
0N
0C
0O
#1335000
1!
1:
1N
1C
1O
0Q
0S
1U
1P
#1340000
0!
0:
0N
0C
0O
#1345000
1!
1:
1N
1C
1O
1Q
0P
1R
#1350000
0!
0:
0N
0C
0O
#1355000
1!
1:
1N
1C
1O
0Q
1S
1P
#1360000
0!
0:
0N
0C
0O
#1365000
1!
1:
1N
1C
1O
1Q
0P
0R
0T
1V
#1370000
0!
0:
0N
0C
0O
#1375000
1!
1:
1N
1C
1O
0Q
0S
0U
1W
1P
#1380000
0!
0:
0N
0C
0O
#1385000
1!
1:
1N
1C
1O
1Q
0P
0V
0X
1[
1^
1_
0\
0Y
1H
19
1+
#1390000
0!
0:
0N
0C
0O
#1395000
1!
1:
1N
1C
1O
0Q
0W
0Z
0]
1`
0_
1a
1Y
1P
1X
0[
0^
1_
0a
0Y
0H
09
0+
#1400000
0!
0:
0N
0C
0O
#1405000
1!
1:
1N
1C
1O
1Q
0P
1R
#1410000
0!
0:
0N
0C
0O
#1415000
1!
1:
1N
1C
1O
0Q
1S
1P
#1420000
0!
0:
0N
0C
0O
#1425000
1!
1:
1N
1C
1O
1Q
0P
0R
1T
#1430000
0!
0:
0N
0C
0O
#1435000
1!
1:
1N
1C
1O
0Q
0S
1U
1P
#1440000
0!
0:
0N
0C
0O
#1445000
1!
1:
1N
1C
1O
1Q
0P
1R
#1450000
0!
0:
0N
0C
0O
#1455000
1!
1:
1N
1C
1O
0Q
1S
1P
#1460000
0!
0:
0N
0C
0O
#1465000
1!
1:
1N
1C
1O
1Q
0P
0R
0T
1V
#1470000
0!
0:
0N
0C
0O
#1475000
1!
1:
1N
1C
1O
0Q
0S
0U
1W
1P
#1480000
0!
0:
0N
0C
0O
#1485000
1!
1:
1N
1C
1O
1Q
0P
0V
0X
1[
1Y
1H
19
1+
#1490000
0!
0:
0N
0C
0O
#1495000
1!
1:
1N
1C
1O
0Q
0W
1Z
0Y
1\
1P
1X
0[
0\
1Y
0H
09
0+
#1500000
0!
0:
0N
0C
0O
#1505000
1!
1:
1N
1C
1O
1Q
0P
1R
#1510000
0!
0:
0N
0C
0O
#1515000
1!
1:
1N
1C
1O
0Q
1S
1P
#1520000
0!
0:
0N
0C
0O
#1525000
1!
1:
1N
1C
1O
1Q
0P
0R
1T
#1530000
0!
0:
0N
0C
0O
#1535000
1!
1:
1N
1C
1O
0Q
0S
1U
1P
#1540000
0!
0:
0N
0C
0O
#1545000
1!
1:
1N
1C
1O
1Q
0P
1R
#1550000
0!
0:
0N
0C
0O
#1555000
1!
1:
1N
1C
1O
0Q
1S
1P
#1560000
0!
0:
0N
0C
0O
#1565000
1!
1:
1N
1C
1O
1Q
0P
0R
0T
1V
#1570000
0!
0:
0N
0C
0O
#1575000
1!
1:
1N
1C
1O
0Q
0S
0U
1W
1P
#1580000
0!
0:
0N
0C
0O
#1585000
1!
1:
1N
1C
1O
1Q
0P
0V
0X
1[
1\
0Y
1H
19
1+
#1590000
0!
0:
0N
0C
0O
#1595000
1!
1:
1N
1C
1O
0Q
0W
0Z
1]
1Y
1P
1X
0[
0Y
0H
09
0+
#1600000
0!
0:
0N
0C
0O
#1605000
1!
1:
1N
1C
1O
1Q
0P
1R
#1610000
0!
0:
0N
0C
0O
#1615000
1!
1:
1N
1C
1O
0Q
1S
1P
#1620000
0!
0:
0N
0C
0O
#1625000
1!
1:
1N
1C
1O
1Q
0P
0R
1T
#1630000
0!
0:
0N
0C
0O
#1635000
1!
1:
1N
1C
1O
0Q
0S
1U
1P
#1640000
0!
0:
0N
0C
0O
#1645000
1!
1:
1N
1C
1O
1Q
0P
1R
#1650000
0!
0:
0N
0C
0O
#1655000
1!
1:
1N
1C
1O
0Q
1S
1P
#1660000
0!
0:
0N
0C
0O
#1665000
1!
1:
1N
1C
1O
1Q
0P
0R
0T
1V
#1670000
0!
0:
0N
0C
0O
#1675000
1!
1:
1N
1C
1O
0Q
0S
0U
1W
1P
#1680000
0!
0:
0N
0C
0O
#1685000
1!
1:
1N
1C
1O
1Q
0P
0V
0X
1[
1Y
1H
19
1+
#1690000
0!
0:
0N
0C
0O
#1695000
1!
1:
1N
1C
1O
0Q
0W
1Z
0Y
0\
1P
1X
0[
1\
1Y
0H
09
0+
#1700000
0!
0:
0N
0C
0O
#1705000
1!
1:
1N
1C
1O
1Q
0P
1R
#1710000
0!
0:
0N
0C
0O
#1715000
1!
1:
1N
1C
1O
0Q
1S
1P
#1720000
0!
0:
0N
0C
0O
#1725000
1!
1:
1N
1C
1O
1Q
0P
0R
1T
#1730000
0!
0:
0N
0C
0O
#1735000
1!
1:
1N
1C
1O
0Q
0S
1U
1P
#1740000
0!
0:
0N
0C
0O
#1745000
1!
1:
1N
1C
1O
1Q
0P
1R
#1750000
0!
0:
0N
0C
0O
#1755000
1!
1:
1N
1C
1O
0Q
1S
1P
#1760000
0!
0:
0N
0C
0O
#1765000
1!
1:
1N
1C
1O
1Q
0P
0R
0T
1V
#1770000
0!
0:
0N
0C
0O
#1775000
1!
1:
1N
1C
1O
0Q
0S
0U
1W
1P
#1780000
0!
0:
0N
0C
0O
#1785000
1!
1:
1N
1C
1O
1Q
0P
0V
0X
1[
1^
0_
1a
0\
0Y
1H
19
1+
#1790000
0!
0:
0N
0C
0O
#1795000
1!
1:
1N
1C
1O
0Q
0W
0Z
0]
0`
1b
1_
1Y
1P
1X
0[
0^
0_
0Y
0H
09
0+
#1800000
0!
0:
0N
0C
0O
#1805000
1!
1:
1N
1C
1O
1Q
0P
1R
#1810000
0!
0:
0N
0C
0O
#1815000
1!
1:
1N
1C
1O
0Q
1S
1P
#1820000
0!
0:
0N
0C
0O
#1825000
1!
1:
1N
1C
1O
1Q
0P
0R
1T
#1830000
0!
0:
0N
0C
0O
#1835000
1!
1:
1N
1C
1O
0Q
0S
1U
1P
#1840000
0!
0:
0N
0C
0O
#1845000
1!
1:
1N
1C
1O
1Q
0P
1R
#1850000
0!
0:
0N
0C
0O
#1855000
1!
1:
1N
1C
1O
0Q
1S
1P
#1860000
0!
0:
0N
0C
0O
#1865000
1!
1:
1N
1C
1O
1Q
0P
0R
0T
1V
#1870000
0!
0:
0N
0C
0O
#1875000
1!
1:
1N
1C
1O
0Q
0S
0U
1W
1P
#1880000
0!
0:
0N
0C
0O
#1885000
1!
1:
1N
1C
1O
1Q
0P
0V
0X
1[
1Y
1H
19
1+
#1890000
0!
0:
0N
0C
0O
#1895000
1!
1:
1N
1C
1O
0Q
0W
1Z
0Y
1\
1P
1X
0[
0\
1Y
0H
09
0+
#1900000
0!
0:
0N
0C
0O
#1905000
1!
1:
1N
1C
1O
1Q
0P
1R
#1910000
0!
0:
0N
0C
0O
#1915000
1!
1:
1N
1C
1O
0Q
1S
1P
#1920000
0!
0:
0N
0C
0O
#1925000
1!
1:
1N
1C
1O
1Q
0P
0R
1T
#1930000
0!
0:
0N
0C
0O
#1935000
1!
1:
1N
1C
1O
0Q
0S
1U
1P
#1940000
0!
0:
0N
0C
0O
#1945000
1!
1:
1N
1C
1O
1Q
0P
1R
#1950000
0!
0:
0N
0C
0O
#1955000
1!
1:
1N
1C
1O
0Q
1S
1P
#1960000
0!
0:
0N
0C
0O
#1965000
1!
1:
1N
1C
1O
1Q
0P
0R
0T
1V
#1970000
0!
0:
0N
0C
0O
#1975000
1!
1:
1N
1C
1O
0Q
0S
0U
1W
1P
#1980000
0!
0:
0N
0C
0O
#1985000
1!
1:
1N
1C
1O
1Q
0P
0V
0X
1[
1\
0Y
1H
19
1+
#1990000
0!
0:
0N
0C
0O
#1995000
1!
1:
1N
1C
1O
0Q
0W
0Z
1]
0a
0c
1e
1!!
0\
1P
1X
0[
1f
1x
1#!
0H
1G
09
18
0+
1*
#2000000
0!
0:
0N
0C
0O
#2005000
1!
1:
1N
1C
1O
1Q
0]
0b
0d
1g
1y
1~
1"!
1$!
0e
0!!
0P
1R
0x
0#!
1M
1L
1K
1D
1?
1>
1=
15
0G
1'
1&
1%
1"
08
0*
#2010000
0!
0:
0N
0C
0O
#2015000
1!
1:
1N
1C
1O
0Q
1S
0y
0~
0"!
0$!
1P
0M
0L
0K
0D
0?
0>
0=
05
0'
0&
0%
0"
#2020000
0!
0:
0N
0C
0O
#2025000
1!
1:
1N
1C
1O
1Q
0P
0R
1T
#2030000
0!
0:
0N
0C
0O
#2035000
1!
1:
1N
1C
1O
0Q
0S
1U
1P
#2040000
0!
0:
0N
0C
0O
#2045000
1!
1:
1N
1C
1O
1Q
0P
1R
#2050000
0!
0:
0N
0C
0O
#2055000
1!
1:
1N
1C
1O
0Q
1S
1P
#2060000
0!
0:
0N
0C
0O
#2065000
1!
1:
1N
1C
1O
1Q
0P
0R
0T
1V
#2070000
0!
0:
0N
0C
0O
#2075000
1!
1:
1N
1C
1O
0Q
0S
0U
1W
1P
#2080000
0!
0:
0N
0C
0O
#2085000
1!
1:
1N
1C
1O
1Q
0P
0V
0X
1[
1Y
1H
19
1+
#2090000
0!
0:
0N
0C
0O
#2095000
1!
1:
1N
1C
1O
0Q
0W
1Z
0Y
1\
1P
1X
0[
0\
1Y
0H
09
0+
#2100000
0!
0:
0N
0C
0O
#2105000
1!
1:
1N
1C
1O
1Q
0P
1R
#2110000
0!
0:
0N
0C
0O
#2115000
1!
1:
1N
1C
1O
0Q
1S
1P
#2120000
0!
0:
0N
0C
0O
