EE 243/Lab3/simulation/qsim/Lab3.msim.vcd
$comment
	File created using the following command:
		vcd file Lab3.msim.vcd -direction
$end
$date
	Tue Sep 27 17:13:24 2022
$end
$version
	ModelSim Version 10.5b
$end
$timescale
	1ps
$end

$scope module wide8_vhd_vec_tst $end
$var wire 1 ! B [0] $end
$var wire 1 " B [1] $end
$var wire 1 # B [2] $end
$var wire 1 $ B [3] $end
$var wire 1 % B [4] $end
$var wire 1 & B [5] $end
$var wire 1 ' B [6] $end
$var wire 1 ( B [7] $end
$var wire 1 ) C [0] $end
$var wire 1 * C [1] $end
$var wire 1 + C [2] $end
$var wire 1 , C [3] $end
$var wire 1 - C [4] $end
$var wire 1 . C [5] $end
$var wire 1 / C [6] $end
$var wire 1 0 C [7] $end
$var wire 1 1 D [0] $end
$var wire 1 2 D [1] $end
$var wire 1 3 D [2] $end
$var wire 1 4 D [3] $end
$var wire 1 5 D [4] $end
$var wire 1 6 D [5] $end
$var wire 1 7 D [6] $end
$var wire 1 8 D [7] $end
$var wire 1 9 E [0] $end
$var wire 1 : E [1] $end
$var wire 1 ; E [2] $end
$var wire 1 < E [3] $end
$var wire 1 = E [4] $end
$var wire 1 > E [5] $end
$var wire 1 ? E [6] $end
$var wire 1 @ E [7] $end
$var wire 1 A S1 [0] $end
$var wire 1 B S1 [1] $end
$var wire 1 C y [0] $end
$var wire 1 D y [1] $end
$var wire 1 E y [2] $end
$var wire 1 F y [3] $end
$var wire 1 G y [4] $end
$var wire 1 H y [5] $end
$var wire 1 I y [6] $end
$var wire 1 J y [7] $end

$scope module i1 $end
$var wire 1 K gnd $end
$var wire 1 L vcc $end
$var wire 1 M unknown $end
$var wire 1 N devoe $end
$var wire 1 O devclrn $end
$var wire 1 P devpor $end
$var wire 1 Q ww_devoe $end
$var wire 1 R ww_devclrn $end
$var wire 1 S ww_devpor $end
$var wire 1 T ww_B [0] $end
$var wire 1 U ww_B [1] $end
$var wire 1 V ww_B [2] $end
$var wire 1 W ww_B [3] $end
$var wire 1 X ww_B [4] $end
$var wire 1 Y ww_B [5] $end
$var wire 1 Z ww_B [6] $end
$var wire 1 [ ww_B [7] $end
$var wire 1 \ ww_C [0] $end
$var wire 1 ] ww_C [1] $end
$var wire 1 ^ ww_C [2] $end
$var wire 1 _ ww_C [3] $end
$var wire 1 ` ww_C [4] $end
$var wire 1 a ww_C [5] $end
$var wire 1 b ww_C [6] $end
$var wire 1 c ww_C [7] $end
$var wire 1 d ww_D [0] $end
$var wire 1 e ww_D [1] $end
$var wire 1 f ww_D [2] $end
$var wire 1 g ww_D [3] $end
$var wire 1 h ww_D [4] $end
$var wire 1 i ww_D [5] $end
$var wire 1 j ww_D [6] $end
$var wire 1 k ww_D [7] $end
$var wire 1 l ww_E [0] $end
$var wire 1 m ww_E [1] $end
$var wire 1 n ww_E [2] $end
$var wire 1 o ww_E [3] $end
$var wire 1 p ww_E [4] $end
$var wire 1 q ww_E [5] $end
$var wire 1 r ww_E [6] $end
$var wire 1 s ww_E [7] $end
$var wire 1 t ww_S1 [0] $end
$var wire 1 u ww_S1 [1] $end
$var wire 1 v ww_y [0] $end
$var wire 1 w ww_y [1] $end
$var wire 1 x ww_y [2] $end
$var wire 1 y ww_y [3] $end
$var wire 1 z ww_y [4] $end
$var wire 1 { ww_y [5] $end
$var wire 1 | ww_y [6] $end
$var wire 1 } ww_y [7] $end
$var wire 1 ~ \y[7]~output_o\ $end
$var wire 1 !! \y[6]~output_o\ $end
$var wire 1 "! \y[5]~output_o\ $end
$var wire 1 #! \y[4]~output_o\ $end
$var wire 1 $! \y[3]~output_o\ $end
$var wire 1 %! \y[2]~output_o\ $end
$var wire 1 &! \y[1]~output_o\ $end
$var wire 1 '! \y[0]~output_o\ $end
$var wire 1 (! \B[7]~input_o\ $end
$var wire 1 )! \C[7]~input_o\ $end
$var wire 1 *! \S1[0]~input_o\ $end
$var wire 1 +! \E[7]~input_o\ $end
$var wire 1 ,! \D[7]~input_o\ $end
$var wire 1 -! \S1[1]~input_o\ $end
$var wire 1 .! \G1:7:L1|Mux0~0_combout\ $end
$var wire 1 /! \G1:7:L1|Mux0~1_combout\ $end
$var wire 1 0! \D[6]~input_o\ $end
$var wire 1 1! \B[6]~input_o\ $end
$var wire 1 2! \C[6]~input_o\ $end
$var wire 1 3! \E[6]~input_o\ $end
$var wire 1 4! \G1:6:L1|Mux0~0_combout\ $end
$var wire 1 5! \G1:6:L1|Mux0~1_combout\ $end
$var wire 1 6! \B[5]~input_o\ $end
$var wire 1 7! \C[5]~input_o\ $end
$var wire 1 8! \D[5]~input_o\ $end
$var wire 1 9! \E[5]~input_o\ $end
$var wire 1 :! \G1:5:L1|Mux0~0_combout\ $end
$var wire 1 ;! \G1:5:L1|Mux0~1_combout\ $end
$var wire 1 <! \D[4]~input_o\ $end
$var wire 1 =! \B[4]~input_o\ $end
$var wire 1 >! \C[4]~input_o\ $end
$var wire 1 ?! \E[4]~input_o\ $end
$var wire 1 @! \G1:4:L1|Mux0~0_combout\ $end
$var wire 1 A! \G1:4:L1|Mux0~1_combout\ $end
$var wire 1 B! \C[3]~input_o\ $end
$var wire 1 C! \B[3]~input_o\ $end
$var wire 1 D! \D[3]~input_o\ $end
$var wire 1 E! \E[3]~input_o\ $end
$var wire 1 F! \G1:3:L1|Mux0~0_combout\ $end
$var wire 1 G! \G1:3:L1|Mux0~1_combout\ $end
$var wire 1 H! \D[2]~input_o\ $end
$var wire 1 I! \B[2]~input_o\ $end
$var wire 1 J! \E[2]~input_o\ $end
$var wire 1 K! \C[2]~input_o\ $end
$var wire 1 L! \G1:2:L1|Mux0~0_combout\ $end
$var wire 1 M! \G1:2:L1|Mux0~1_combout\ $end
$var wire 1 N! \B[1]~input_o\ $end
$var wire 1 O! \C[1]~input_o\ $end
$var wire 1 P! \D[1]~input_o\ $end
$var wire 1 Q! \E[1]~input_o\ $end
$var wire 1 R! \G1:1:L1|Mux0~0_combout\ $end
$var wire 1 S! \G1:1:L1|Mux0~1_combout\ $end
$var wire 1 T! \D[0]~input_o\ $end
$var wire 1 U! \B[0]~input_o\ $end
$var wire 1 V! \E[0]~input_o\ $end
$var wire 1 W! \C[0]~input_o\ $end
$var wire 1 X! \G1:0:L1|Mux0~0_combout\ $end
$var wire 1 Y! \G1:0:L1|Mux0~1_combout\ $end
$upscope $end
$upscope $end
$enddefinitions $end
#0
$dumpvars
0K
1L
xM
1N
1O
1P
1Q
1R
1S
0~
0!!
0"!
0#!
0$!
0%!
0&!
0'!
x(!
x)!
x*!
x+!
x,!
x-!
x.!
x/!
x0!
x1!
x2!
x3!
x4!
x5!
x6!
x7!
x8!
x9!
x:!
x;!
x<!
x=!
x>!
x?!
x@!
xA!
xB!
xC!
xD!
xE!
xF!
xG!
xH!
xI!
xJ!
xK!
xL!
xM!
xN!
xO!
xP!
xQ!
xR!
xS!
xT!
xU!
xV!
xW!
xX!
xY!
0!
0"
0#
0$
0%
0&
0'
0(
0)
0*
0+
0,
0-
0.
0/
00
01
02
03
04
05
06
07
08
09
0:
0;
0<
0=
0>
0?
0@
0A
0B
0C
0D
0E
0F
0G
0H
0I
0J
0T
0U
0V
0W
0X
0Y
0Z
0[
0\
0]
0^
0_
0`
0a
0b
0c
0d
0e
0f
0g
0h
0i
0j
0k
0l
0m
0n
0o
0p
0q
0r
0s
0t
0u
0v
0w
0x
0y
0z
0{
0|
0}
$end
#772
0-!
0C!
0Q!
#782
0+!
03!
08!
0P!
0V!
#792
0*!
0,!
00!
02!
0<!
0H!
0J!
#802
0(!
07!
0=!
0>!
0B!
0D!
0I!
0N!
0T!
#812
0)!
01!
0O!
#822
06!
09!
0?!
0W!
#832
0E!
#842
0K!
0U!
#3589
x"!
x{
xH
#3912
x&!
xw
xD
#4010
x$!
xy
xF
#4011
x'!
xv
xC
#4048
x~
x}
xJ
#4051
x%!
xx
xE
#4287
x!!
x|
xI
#4484
x#!
xz
xG
#4573
0:!
#4759
0.!
#4897
0F!
#4924
0@!
#4927
0X!
#4928
0L!
#4944
04!
#5172
0/!
#5347
0R!
#5498
0;!
#5848
0G!
#5869
0M!
#5870
0A!
#5889
05!
#6026
0Y!
#6124
0S!
#9023
0"!
0{
0H
#9132
0~
0}
0J
#9766
0$!
0y
0F
#9835
0%!
0x
0E
#9932
0&!
0w
0D
#9952
0'!
0v
0C
#10000
1!
1)
11
19
1T
1\
1d
1l
#10069
0!!
0|
0I
#10243
0#!
0z
0G
#10736
1V!
#10756
1T!
#10776
1W!
#10796
1U!
#14687
1X!
#15854
1Y!
#19865
1'!
1v
1C
#20000
0!
0)
01
09
1"
1*
12
1:
1U
0T
1]
0\
1e
0d
1m
0l
#20726
1Q!
#20736
1P!
#20756
1N!
#20766
1O!
#20782
0V!
#20802
0T!
#20822
0W!
#20842
0U!
#24927
0X!
#25144
1R!
#25960
1S!
#26026
0Y!
#29872
1&!
1w
1D
#29952
0'!
0v
0C
#30000
1!
1)
11
19
1T
1\
1d
1l
#30736
1V!
#30756
1T!
#30776
1W!
#30796
1U!
#34687
1X!
#35854
1Y!
#39865
1'!
1v
1C
#40000
0!
0)
01
09
0"
0*
02
0:
1#
1+
13
1;
1V
0U
0T
1^
0]
0\
1f
0e
0d
1n
0m
0l
#40746
1J!
1H!
#40756
1I!
#40772
0Q!
#40782
0V!
0P!
#40796
1K!
#40802
0T!
0N!
#40812
0O!
#40822
0W!
#40842
0U!
#44277
1L!
#44927
0X!
#45298
1M!
#45347
0R!
#46026
0Y!
#46124
0S!
#49349
1%!
1x
1E
#49932
0&!
0w
0D
#49952
0'!
0v
0C
#50000
1!
1)
11
19
1T
1\
1d
1l
#50736
1V!
#50756
1T!
#50776
1W!
#50796
1U!
#54687
1X!
#55854
1Y!
#59865
1'!
1v
1C
#60000
0!
0)
01
09
1"
1*
12
1:
1U
0T
1]
0\
1e
0d
1m
0l
#60726
1Q!
#60736
1P!
#60756
1N!
#60766
1O!
#60782
0V!
#60802
0T!
#60822
0W!
#60842
0U!
#64927
0X!
#65144
1R!
#65960
1S!
#66026
0Y!
#69872
1&!
1w
1D
#69952
0'!
0v
0C
#70000
1!
1)
11
19
1T
1\
1d
1l
#70736
1V!
#70756
1T!
#70776
1W!
#70796
1U!
#74687
1X!
#75854
1Y!
#79865
1'!
1v
1C
#80000
0!
0)
01
09
0"
0*
02
0:
0#
0+
03
0;
1$
1,
14
1<
1W
0V
0U
0T
1_
0^
0]
0\
1g
0f
0e
0d
1o
0n
0m
0l
#80726
1C!
#80756
1D!
1B!
#80772
0Q!
#80782
0V!
0P!
#80786
1E!
#80792
0J!
0H!
#80802
0T!
0N!
0I!
#80812
0O!
#80822
0W!
#80842
0K!
0U!
#84526
0L!
#84646
1F!
#84927
0X!
#85347
0R!
#85467
0M!
#85676
1G!
#86026
0Y!
#86124
0S!
#89433
0%!
0x
0E
#89686
1$!
1y
1F
#89932
0&!
0w
0D
#89952
0'!
0v
0C
#90000
1!
1)
11
19
1T
1\
1d
1l
#90736
1V!
#90756
1T!
#90776
1W!
#90796
1U!
#94687
1X!
#95854
1Y!
#99865
1'!
1v
1C
#100000
0!
0)
01
09
1"
1*
12
1:
1U
0T
1]
0\
1e
0d
1m
0l
#100726
1Q!
#100736
1P!
#100756
1N!
#100766
1O!
#100782
0V!
#100802
0T!
#100822
0W!
#100842
0U!
#104927
0X!
#105144
1R!
#105960
1S!
#106026
0Y!
#109872
1&!
1w
1D
#109952
0'!
0v
0C
#110000
1!
1)
11
19
1T
1\
1d
1l
#110736
1V!
#110756
1T!
#110776
1W!
#110796
1U!
#114687
1X!
#115854
1Y!
#119865
1'!
1v
1C
#120000
0!
0)
01
09
0"
0*
02
0:
1#
1+
13
1;
1V
0U
0T
1^
0]
0\
1f
0e
0d
1n
0m
0l
#120746
1J!
1H!
#120756
1I!
#120772
0Q!
#120782
0V!
0P!
#120796
1K!
#120802
0T!
0N!
#120812
0O!
#120822
0W!
#120842
0U!
#124277
1L!
#124927
0X!
#125298
1M!
#125347
0R!
#126026
0Y!
#126124
0S!
#129349
1%!
1x
1E
#129932
0&!
0w
0D
#129952
0'!
0v
0C
#130000
1!
1)
11
19
1T
1\
1d
1l
#130736
1V!
#130756
1T!
#130776
1W!
#130796
1U!
#134687
1X!
#135854
1Y!
#139865
1'!
1v
1C
#140000
0!
0)
01
09
1"
1*
12
1:
1U
0T
1]
0\
1e
0d
1m
0l
#140726
1Q!
#140736
1P!
#140756
1N!
#140766
1O!
#140782
0V!
#140802
0T!
#140822
0W!
#140842
0U!
#144927
0X!
#145144
1R!
#145960
1S!
#146026
0Y!
#149872
1&!
1w
1D
#149952
0'!
0v
0C
#150000
1!
1)
11
19
1T
1\
1d
1l
#150736
1V!
#150756
1T!
#150776
1W!
#150796
1U!
#154687
1X!
#155854
1Y!
#159865
1'!
1v
1C
#160000
0!
0)
01
09
0"
0*
02
0:
0#
0+
03
0;
0$
0,
04
0<
1%
1-
15
1=
1X
0W
0V
0U
0T
1`
0_
0^
0]
0\
1h
0g
0f
0e
0d
1p
0o
0n
0m
0l
#160746
1<!
#160756
1>!
1=!
#160772
0Q!
0C!
#160776
1?!
#160782
0V!
0P!
#160792
0J!
0H!
#160802
0T!
0D!
0B!
0N!
0I!
#160812
0O!
#160822
0W!
#160832
0E!
#160842
0K!
0U!
#164526
0L!
#164679
1@!
#164897
0F!
#164927
0X!
#165347
0R!
#165467
0M!
#165699
1A!
#165848
0G!
#166026
0Y!
#166124
0S!
#169433
0%!
0x
0E
#169766
0$!
0y
0F
#169932
0&!
0w
0D
#169952
0'!
0v
0C
#170000
1!
1)
11
19
1T
1\
1d
1l
#170183
1#!
1z
1G
#170736
1V!
#170756
1T!
#170776
1W!
#170796
1U!
#174687
1X!
#175854
1Y!
#179865
1'!
1v
1C
#180000
0!
0)
01
09
1"
1*
12
1:
1U
0T
1]
0\
1e
0d
1m
0l
#180726
1Q!
#180736
1P!
#180756
1N!
#180766
1O!
#180782
0V!
#180802
0T!
#180822
0W!
#180842
0U!
#184927
0X!
#185144
1R!
#185960
1S!
#186026
0Y!
#189872
1&!
1w
1D
#189952
0'!
0v
0C
#190000
1!
1)
11
19
1T
1\
1d
1l
#190736
1V!
#190756
1T!
#190776
1W!
#190796
1U!
#194687
1X!
#195854
1Y!
#199865
1'!
1v
1C
#200000
0!
0)
01
09
0"
0*
02
0:
1#
1+
13
1;
1V
0U
0T
1^
0]
0\
1f
0e
0d
1n
0m
0l
#200746
1J!
1H!
#200756
1I!
#200772
0Q!
#200782
0V!
0P!
#200796
1K!
#200802
0T!
0N!
#200812
0O!
#200822
0W!
#200842
0U!
#204277
1L!
#204927
0X!
#205298
1M!
#205347
0R!
#206026
0Y!
#206124
0S!
#209349
1%!
1x
1E
#209932
0&!
0w
0D
#209952
0'!
0v
0C
#210000
1!
1)
11
19
1T
1\
1d
1l
#210736
1V!
#210756
1T!
#210776
1W!
#210796
1U!
#214687
1X!
#215854
1Y!
#219865
1'!
1v
1C
#220000
0!
0)
01
09
1"
1*
12
1:
1U
0T
1]
0\
1e
0d
1m
0l
#220726
1Q!
#220736
1P!
#220756
1N!
#220766
1O!
#220782
0V!
#220802
0T!
#220822
0W!
#220842
0U!
#224927
0X!
#225144
1R!
#225960
1S!
#226026
0Y!
#229872
1&!
1w
1D
#229952
0'!
0v
0C
#230000
1!
1)
11
19
1T
1\
1d
1l
#230736
1V!
#230756
1T!
#230776
1W!
#230796
1U!
#234687
1X!
#235854
1Y!
#239865
1'!
1v
1C
#240000
0!
0)
01
09
0"
0*
02
0:
0#
0+
03
0;
1$
1,
14
1<
1W
0V
0U
0T
1_
0^
0]
0\
1g
0f
0e
0d
1o
0n
0m
0l
#240726
1C!
#240756
1D!
1B!
#240772
0Q!
#240782
0V!
0P!
#240786
1E!
#240792
0J!
0H!
#240802
0T!
0N!
0I!
#240812
0O!
#240822
0W!
#240842
0K!
0U!
#244526
0L!
#244646
1F!
#244927
0X!
#245347
0R!
#245467
0M!
#245676
1G!
#246026
0Y!
#246124
0S!
#249433
0%!
0x
0E
#249686
1$!
1y
1F
#249932
0&!
0w
0D
#249952
0'!
0v
0C
#250000
1!
1)
11
19
1T
1\
1d
1l
#250736
1V!
#250756
1T!
#250776
1W!
#250796
1U!
#254687
1X!
#255854
1Y!
#259865
1'!
1v
1C
#260000
0!
0)
01
09
1"
1*
12
1:
1U
0T
1]
0\
1e
0d
1m
0l
#260726
1Q!
#260736
1P!
#260756
1N!
#260766
1O!
#260782
0V!
#260802
0T!
#260822
0W!
#260842
0U!
#264927
0X!
#265144
1R!
#265960
1S!
#266026
0Y!
#269872
1&!
1w
1D
#269952
0'!
0v
0C
#270000
1!
1)
11
19
1T
1\
1d
1l
#270736
1V!
#270756
1T!
#270776
1W!
#270796
1U!
#274687
1X!
#275854
1Y!
#279865
1'!
1v
1C
#280000
0!
0)
01
09
0"
0*
02
0:
1#
1+
13
1;
1V
0U
0T
1^
0]
0\
1f
0e
0d
1n
0m
0l
#280746
1J!
1H!
#280756
1I!
#280772
0Q!
#280782
0V!
0P!
#280796
1K!
#280802
0T!
0N!
#280812
0O!
#280822
0W!
#280842
0U!
#284277
1L!
#284927
0X!
#285298
1M!
#285347
0R!
#286026
0Y!
#286124
0S!
#289349
1%!
1x
1E
#289932
0&!
0w
0D
#289952
0'!
0v
0C
#290000
1!
1)
11
19
1T
1\
1d
1l
#290736
1V!
#290756
1T!
#290776
1W!
#290796
1U!
#294687
1X!
#295854
1Y!
#299865
1'!
1v
1C
#300000
0!
0)
01
09
1"
1*
12
1:
1U
0T
1]
0\
1e
0d
1m
0l
#300726
1Q!
#300736
1P!
#300756
1N!
#300766
1O!
#300782
0V!
#300802
0T!
#300822
0W!
#300842
0U!
#304927
0X!
#305144
1R!
#305960
1S!
#306026
0Y!
#309872
1&!
1w
1D
#309952
0'!
0v
0C
#310000
1!
1)
11
19
1T
1\
1d
1l
#310736
1V!
#310756
1T!
#310776
1W!
#310796
1U!
#314687
1X!
#315854
1Y!
#319865
1'!
1v
1C
#320000
0!
0)
01
09
0"
0*
02
0:
0#
0+
03
0;
0$
0,
04
0<
0%
0-
05
0=
1&
1.
16
1>
1Y
0X
0W
0V
0U
0T
1a
0`
0_
0^
0]
0\
1i
0h
0g
0f
0e
0d
1q
0p
0o
0n
0m
0l
#320736
18!
#320756
17!
#320772
0Q!
0C!
#320776
19!
16!
#320782
0V!
0P!
#320792
0J!
0H!
0<!
#320802
0T!
0D!
0B!
0>!
0N!
0I!
0=!
#320812
0O!
#320822
0?!
0W!
#320832
0E!
#320842
0K!
0U!
#324469
1:!
#324526
0L!
#324897
0F!
#324924
0@!
#324927
0X!
#325347
0R!
#325467
0M!
#325475
1;!
#325848
0G!
#325870
0A!
#326026
0Y!
#326124
0S!
#329064
1"!
1{
1H
#329433
0%!
0x
0E
#329766
0$!
0y
0F
#329932
0&!
0w
0D
#329952
0'!
0v
0C
#330000
1!
1)
11
19
1T
1\
1d
1l
#330243
0#!
0z
0G
#330736
1V!
#330756
1T!
#330776
1W!
#330796
1U!
#334687
1X!
#335854
1Y!
#339865
1'!
1v
1C
#340000
0!
0)
01
09
1"
1*
12
1:
1U
0T
1]
0\
1e
0d
1m
0l
#340726
1Q!
#340736
1P!
#340756
1N!
#340766
1O!
#340782
0V!
#340802
0T!
#340822
0W!
#340842
0U!
#344927
0X!
#345144
1R!
#345960
1S!
#346026
0Y!
#349872
1&!
1w
1D
#349952
0'!
0v
0C
#350000
1!
1)
11
19
1T
1\
1d
1l
#350736
1V!
#350756
1T!
#350776
1W!
#350796
1U!
#354687
1X!
#355854
1Y!
#359865
1'!
1v
1C
#360000
0!
0)
01
09
0"
0*
02
0:
1#
1+
13
1;
1V
0U
0T
1^
0]
0\
1f
0e
0d
1n
0m
0l
#360746
1J!
1H!
#360756
1I!
#360772
0Q!
#360782
0V!
0P!
#360796
1K!
#360802
0T!
0N!
#360812
0O!
#360822
0W!
#360842
0U!
#364277
1L!
#364927
0X!
#365298
1M!
#365347
0R!
#366026
0Y!
#366124
0S!
#369349
1%!
1x
1E
#369932
0&!
0w
0D
#369952
0'!
0v
0C
#370000
1!
1)
11
19
1T
1\
1d
1l
#370736
1V!
#370756
1T!
#370776
1W!
#370796
1U!
#374687
1X!
#375854
1Y!
#379865
1'!
1v
1C
#380000
0!
0)
01
09
1"
1*
12
1:
1U
0T
1]
0\
1e
0d
1m
0l
#380726
1Q!
#380736
1P!
#380756
1N!
#380766
1O!
#380782
0V!
#380802
0T!
#380822
0W!
#380842
0U!
#384927
0X!
#385144
1R!
#385960
1S!
#386026
0Y!
#389872
1&!
1w
1D
#389952
0'!
0v
0C
#390000
1!
1)
11
19
1T
1\
1d
1l
#390736
1V!
#390756
1T!
#390776
1W!
#390796
1U!
#394687
1X!
#395854
1Y!
#399865
1'!
1v
1C
#400000
0!
0)
01
09
0"
0*
02
0:
0#
0+
03
0;
1$
1,
14
1<
1W
0V
0U
0T
1_
0^
0]
0\
1g
0f
0e
0d
1o
0n
0m
0l
#400726
1C!
#400756
1D!
1B!
#400772
0Q!
#400782
0V!
0P!
#400786
1E!
#400792
0J!
0H!
#400802
0T!
0N!
0I!
#400812
0O!
#400822
0W!
#400842
0K!
0U!
#404526
0L!
#404646
1F!
#404927
0X!
#405347
0R!
#405467
0M!
#405676
1G!
#406026
0Y!
#406124
0S!
#409433
0%!
0x
0E
#409686
1$!
1y
1F
#409932
0&!
0w
0D
#409952
0'!
0v
0C
#410000
1!
1)
11
19
1T
1\
1d
1l
#410736
1V!
#410756
1T!
#410776
1W!
#410796
1U!
#414687
1X!
#415854
1Y!
#419865
1'!
1v
1C
#420000
0!
0)
01
09
1"
1*
12
1:
1U
0T
1]
0\
1e
0d
1m
0l
#420726
1Q!
#420736
1P!
#420756
1N!
#420766
1O!
#420782
0V!
#420802
0T!
#420822
0W!
#420842
0U!
#424927
0X!
#425144
1R!
#425960
1S!
#426026
0Y!
#429872
1&!
1w
1D
#429952
0'!
0v
0C
#430000
1!
1)
11
19
1T
1\
1d
1l
#430736
1V!
#430756
1T!
#430776
1W!
#430796
1U!
#434687
1X!
#435854
1Y!
#439865
1'!
1v
1C
#440000
0!
0)
01
09
0"
0*
02
0:
1#
1+
13
1;
1V
0U
0T
1^
0]
0\
1f
0e
0d
1n
0m
0l
#440746
1J!
1H!
#440756
1I!
#440772
0Q!
#440782
0V!
0P!
#440796
1K!
#440802
0T!
0N!
#440812
0O!
#440822
0W!
#440842
0U!
#444277
1L!
#444927
0X!
#445298
1M!
#445347
0R!
#446026
0Y!
#446124
0S!
#449349
1%!
1x
1E
#449932
0&!
0w
0D
#449952
0'!
0v
0C
#450000
1!
1)
11
19
1T
1\
1d
1l
#450736
1V!
#450756
1T!
#450776
1W!
#450796
1U!
#454687
1X!
#455854
1Y!
#459865
1'!
1v
1C
#460000
0!
0)
01
09
1"
1*
12
1:
1U
0T
1]
0\
1e
0d
1m
0l
#460726
1Q!
#460736
1P!
#460756
1N!
#460766
1O!
#460782
0V!
#460802
0T!
#460822
0W!
#460842
0U!
#464927
0X!
#465144
1R!
#465960
1S!
#466026
0Y!
#469872
1&!
1w
1D
#469952
0'!
0v
0C
#470000
1!
1)
11
19
1T
1\
1d
1l
#470736
1V!
#470756
1T!
#470776
1W!
#470796
1U!
#474687
1X!
#475854
1Y!
#479865
1'!
1v
1C
#480000
0!
0)
01
09
0"
0*
02
0:
0#
0+
03
0;
0$
0,
04
0<
1%
1-
15
1=
1X
0W
0V
0U
0T
1`
0_
0^
0]
0\
1h
0g
0f
0e
0d
1p
0o
0n
0m
0l
#480746
1<!
#480756
1>!
1=!
#480772
0Q!
0C!
#480776
1?!
#480782
0V!
0P!
#480792
0J!
0H!
#480802
0T!
0D!
0B!
0N!
0I!
#480812
0O!
#480822
0W!
#480832
0E!
#480842
0K!
0U!
#484526
0L!
#484679
1@!
#484897
0F!
#484927
0X!
#485347
0R!
#485467
0M!
#485699
1A!
#485848
0G!
#486026
0Y!
#486124
0S!
#489433
0%!
0x
0E
#489766
0$!
0y
0F
#489932
0&!
0w
0D
#489952
0'!
0v
0C
#490000
1!
1)
11
19
1T
1\
1d
1l
#490183
1#!
1z
1G
#490736
1V!
#490756
1T!
#490776
1W!
#490796
1U!
#494687
1X!
#495854
1Y!
#499865
1'!
1v
1C
#500000
0!
0)
01
09
1"
1*
12
1:
1U
0T
1]
0\
1e
0d
1m
0l
#500726
1Q!
#500736
1P!
#500756
1N!
#500766
1O!
#500782
0V!
#500802
0T!
#500822
0W!
#500842
0U!
#504927
0X!
#505144
1R!
#505960
1S!
#506026
0Y!
#509872
1&!
1w
1D
#509952
0'!
0v
0C
#510000
1!
1)
11
19
1T
1\
1d
1l
#510736
1V!
#510756
1T!
#510776
1W!
#510796
1U!
#514687
1X!
#515854
1Y!
#519865
1'!
1v
1C
#520000
0!
0)
01
09
0"
0*
02
0:
1#
1+
13
1;
1V
0U
0T
1^
0]
0\
1f
0e
0d
1n
0m
0l
#520746
1J!
1H!
#520756
1I!
#520772
0Q!
#520782
0V!
0P!
#520796
1K!
#520802
0T!
0N!
#520812
0O!
#520822
0W!
#520842
0U!
#524277
1L!
#524927
0X!
#525298
1M!
#525347
0R!
#526026
0Y!
#526124
0S!
#529349
1%!
1x
1E
#529932
0&!
0w
0D
#529952
0'!
0v
0C
#530000
1!
1)
11
19
1T
1\
1d
1l
#530736
1V!
#530756
1T!
#530776
1W!
#530796
1U!
#534687
1X!
#535854
1Y!
#539865
1'!
1v
1C
#540000
0!
0)
01
09
1"
1*
12
1:
1U
0T
1]
0\
1e
0d
1m
0l
#540726
1Q!
#540736
1P!
#540756
1N!
#540766
1O!
#540782
0V!
#540802
0T!
#540822
0W!
#540842
0U!
#544927
0X!
#545144
1R!
#545960
1S!
#546026
0Y!
#549872
1&!
1w
1D
#549952
0'!
0v
0C
#550000
1!
1)
11
19
1T
1\
1d
1l
#550736
1V!
#550756
1T!
#550776
1W!
#550796
1U!
#554687
1X!
#555854
1Y!
#559865
1'!
1v
1C
#560000
0!
0)
01
09
0"
0*
02
0:
0#
0+
03
0;
1$
1,
14
1<
1W
0V
0U
0T
1_
0^
0]
0\
1g
0f
0e
0d
1o
0n
0m
0l
#560726
1C!
#560756
1D!
1B!
#560772
0Q!
#560782
0V!
0P!
#560786
1E!
#560792
0J!
0H!
#560802
0T!
0N!
0I!
#560812
0O!
#560822
0W!
#560842
0K!
0U!
#564526
0L!
#564646
1F!
#564927
0X!
#565347
0R!
#565467
0M!
#565676
1G!
#566026
0Y!
#566124
0S!
#569433
0%!
0x
0E
#569686
1$!
1y
1F
#569932
0&!
0w
0D
#569952
0'!
0v
0C
#570000
1!
1)
11
19
1T
1\
1d
1l
#570736
1V!
#570756
1T!
#570776
1W!
#570796
1U!
#574687
1X!
#575854
1Y!
#579865
1'!
1v
1C
#580000
0!
0)
01
09
1"
1*
12
1:
1U
0T
1]
0\
1e
0d
1m
0l
#580726
1Q!
#580736
1P!
#580756
1N!
#580766
1O!
#580782
0V!
#580802
0T!
#580822
0W!
#580842
0U!
#584927
0X!
#585144
1R!
#585960
1S!
#586026
0Y!
#589872
1&!
1w
1D
#589952
0'!
0v
0C
#590000
1!
1)
11
19
1T
1\
1d
1l
#590736
1V!
#590756
1T!
#590776
1W!
#590796
1U!
#594687
1X!
#595854
1Y!
#599865
1'!
1v
1C
#600000
0!
0)
01
09
0"
0*
02
0:
1#
1+
13
1;
1V
0U
0T
1^
0]
0\
1f
0e
0d
1n
0m
0l
#600746
1J!
1H!
#600756
1I!
#600772
0Q!
#600782
0V!
0P!
#600796
1K!
#600802
0T!
0N!
#600812
0O!
#600822
0W!
#600842
0U!
#604277
1L!
#604927
0X!
#605298
1M!
#605347
0R!
#606026
0Y!
#606124
0S!
#609349
1%!
1x
1E
#609932
0&!
0w
0D
#609952
0'!
0v
0C
#610000
1!
1)
11
19
1T
1\
1d
1l
#610736
1V!
#610756
1T!
#610776
1W!
#610796
1U!
#614687
1X!
#615854
1Y!
#619865
1'!
1v
1C
#620000
0!
0)
01
09
1"
1*
12
1:
1U
0T
1]
0\
1e
0d
1m
0l
#620726
1Q!
#620736
1P!
#620756
1N!
#620766
1O!
#620782
0V!
#620802
0T!
#620822
0W!
#620842
0U!
#624927
0X!
#625144
1R!
#625960
1S!
#626026
0Y!
#629872
1&!
1w
1D
#629952
0'!
0v
0C
#630000
1!
1)
11
19
1T
1\
1d
1l
#630736
1V!
#630756
1T!
#630776
1W!
#630796
1U!
#634687
1X!
#635854
1Y!
#639865
1'!
1v
1C
#640000
0!
0)
01
09
0"
0*
02
0:
0#
0+
03
0;
0$
0,
04
0<
0%
0-
05
0=
0&
0.
06
0>
1'
1/
17
1?
1Z
0Y
0X
0W
0V
0U
0T
1b
0a
0`
0_
0^
0]
0\
1j
0i
0h
0g
0f
0e
0d
1r
0q
0p
0o
0n
0m
0l
#640736
13!
#640746
10!
12!
#640766
11!
#640772
0Q!
0C!
#640782
0V!
0P!
08!
#640792
0J!
0H!
0<!
#640802
0T!
0D!
0B!
0>!
07!
0N!
0I!
0=!
#640812
0O!
#640822
0?!
09!
0W!
06!
#640832
0E!
#640842
0K!
0U!
#644305
14!
#644526
0L!
#644718
0:!
#644897
0F!
#644924
0@!
#644927
0X!
#645325
15!
#645347
0R!
#645467
0M!
#645643
0;!
#645848
0G!
#645870
0A!
#646026
0Y!
#646124
0S!
#649168
0"!
0{
0H
#649433
0%!
0x
0E
#649612
1!!
1|
1I
#649766
0$!
0y
0F
#649932
0&!
0w
0D
#649952
0'!
0v
0C
#650000
1!
1)
11
19
1T
1\
1d
1l
#650243
0#!
0z
0G
#650736
1V!
#650756
1T!
#650776
1W!
#650796
1U!
#654687
1X!
