EE 243/Lab4/simulation/qsim/EE243Lab4.msim.vcd
$comment
	File created using the following command:
		vcd file EE243Lab4.msim.vcd -direction
$end
$date
	Tue Oct 04 15:19:35 2022
$end
$version
	ModelSim Version 10.5b
$end
$timescale
	1ps
$end

$scope module EE243Lab4_vlg_vec_tst $end
$var reg 1 ! in1 $end
$var reg 1 " in2 $end
$var reg 1 # in3 $end
$var reg 1 $ in4 $end
$var reg 1 % in5 $end
$var reg 1 & inA0 $end
$var reg 1 ' inA1 $end
$var reg 1 ( inA2 $end
$var reg 1 ) inA3 $end
$var reg 1 * inB0 $end
$var reg 1 + inB1 $end
$var reg 1 , inB2 $end
$var reg 1 - inB3 $end
$var reg 1 . M $end
$var wire 1 / output1 $end
$var wire 1 0 output2 $end
$var wire 1 1 output3 $end
$var wire 1 2 output4 $end

$scope module i1 $end
$var wire 1 3 gnd $end
$var wire 1 4 vcc $end
$var wire 1 5 unknown $end
$var tri1 1 6 devclrn $end
$var tri1 1 7 devpor $end
$var tri1 1 8 devoe $end
$var wire 1 9 output1~output_o $end
$var wire 1 : output2~output_o $end
$var wire 1 ; output3~output_o $end
$var wire 1 < output4~output_o $end
$var wire 1 = in1~input_o $end
$var wire 1 > inA0~input_o $end
$var wire 1 ? inB0~input_o $end
$var wire 1 @ in5~input_o $end
$var wire 1 A in4~input_o $end
$var wire 1 B inst|46~0_combout $end
$var wire 1 C M~input_o $end
$var wire 1 D in2~input_o $end
$var wire 1 E in3~input_o $end
$var wire 1 F inst|43~0_combout $end
$var wire 1 G inst|80~0_combout $end
$var wire 1 H inA1~input_o $end
$var wire 1 I inB1~input_o $end
$var wire 1 J inst|44~0_combout $end
$var wire 1 K inst|79~combout $end
$var wire 1 L inst|47~0_combout $end
$var wire 1 M inst|81~combout $end
$var wire 1 N inB2~input_o $end
$var wire 1 O inA2~input_o $end
$var wire 1 P inst|45~0_combout $end
$var wire 1 Q inst|48~0_combout $end
$var wire 1 R inst|82~0_combout $end
$var wire 1 S inst|74~0_combout $end
$var wire 1 T inst|82~1_combout $end
$var wire 1 U inA3~input_o $end
$var wire 1 V inB3~input_o $end
$var wire 1 W inst|52~0_combout $end
$var wire 1 X inst|51~0_combout $end
$var wire 1 Y inst|74~1_combout $end
$var wire 1 Z inst|77~combout $end
$upscope $end
$upscope $end
$enddefinitions $end
#0
$dumpvars
1!
0"
0#
0$
0%
1&
0'
1(
1)
1*
1+
0,
0-
0.
x/
x0
x1
x2
03
14
x5
16
17
18
x9
x:
x;
x<
1=
1>
1?
0@
0A
xB
0C
0D
0E
xF
xG
0H
1I
xJ
xK
xL
xM
0N
1O
xP
xQ
xR
xS
xT
1U
0V
xW
xX
xY
xZ
$end
#3551
1P
#3871
1X
#3881
1F
#3887
0W
#3959
0B
0Q
#4080
0L
#4106
0J
#4400
0R
#4726
1K
#4789
0G
#5199
1S
#5293
1M
#5623
1T
#5625
1Y
#6182
0Z
#8743
19
1/
#9250
0:
00
#9651
1;
11
#10000
1%
#10076
1<
12
#10746
1@
#14499
1B
#15221
0K
#15292
1G
#15803
0M
#19336
09
0/
#19677
1:
10
#20000
1$
0%
#20756
1A
#20792
0@
#23958
1W
#24253
1Q
#24722
1Z
#24751
0B
#24974
0Y
#25034
0T
#25518
1K
#25558
0Z
#25581
0G
#26085
1M
#28975
0;
01
#29535
19
1/
#30000
1%
#30042
0:
00
#30746
1@
#34499
1B
#35221
0K
#35292
1G
#35803
0M
#39336
09
0/
#39677
1:
10
#40000
1#
0$
0%
#40736
1E
#40792
0@
#40802
0A
#44227
0W
#44525
0Q
#44751
0B
#45023
1Z
#45279
1Y
#45306
1T
#45518
1K
#45581
0G
#45836
0Z
#46085
1M
#49334
1;
11
#49535
19
1/
#50000
1%
#50042
0:
00
#50746
1@
#54499
1B
#55221
0K
#55292
1G
#55803
0M
#59336
09
0/
#59677
1:
10
#60000
1$
0%
#60756
1A
#60792
0@
#63958
1W
#64253
1Q
#64722
1Z
#64751
0B
#64974
0Y
#65034
0T
#65518
1K
#65558
0Z
#65581
0G
#66085
1M
#68975
0;
01
#69535
19
1/
#70000
1%
#70042
0:
00
#70746
1@
#74499
1B
#75221
0K
#75292
1G
#75803
0M
#79336
09
0/
#79677
1:
10
#80000
1"
0#
0$
0%
#80776
1D
#80782
0E
#80792
0@
#80802
0A
#84227
0W
#84478
1J
#84525
0Q
#84751
0B
#85023
1Z
#85249
1M
#85279
1Y
#85306
1T
#85518
1K
#85581
0G
#85836
0Z
#86074
0M
#89334
1;
11
#89535
19
1/
#90000
1%
#90746
1@
#94499
1B
#94930
1R
#95221
0K
#95292
1G
#95706
0S
#95814
1M
#96129
0T
#96132
0Y
#96727
1Z
#99336
09
0/
#99771
0:
00
#100000
1$
0%
#100070
0;
01
#100716
0<
02
#100756
1A
#100792
0@
#103958
1W
#104253
1Q
#104732
0Z
#104751
0B
#105002
1T
#105192
0R
#105518
1K
#105581
0G
#105991
1S
#106074
0M
#106393
0T
#108626
1<
12
#109535
19
1/
#109948
1:
10
#110000
1%
#110746
1@
#114499
1B
#114930
1R
#115221
0K
#115292
1G
#115706
0S
#115814
1M
#116151
1T
#119336
09
0/
#119771
0:
00
#120000
1#
0$
0%
#120179
1;
11
#120736
1E
#120792
0@
#120802
0A
#124227
0W
#124525
0Q
#124751
0B
#125023
1Z
#125192
0R
#125338
0T
#125518
1K
#125581
0G
#125991
1S
#126074
0M
#126415
1T
#126417
1Y
#126974
0Z
#129535
19
1/
#129948
1:
10
#130000
1%
#130746
1@
#134499
1B
#134930
1R
#135221
0K
#135292
1G
#135706
0S
#135814
1M
#136129
0T
#136132
0Y
#136727
1Z
#139336
09
0/
#139771
0:
00
#140000
1$
0%
#140070
0;
01
#140716
0<
02
#140756
1A
#140792
0@
#143958
1W
#144253
1Q
#144732
0Z
#144751
0B
#145002
1T
#145192
0R
#145518
1K
#145581
0G
#145991
1S
#146074
0M
#146393
0T
#148626
1<
12
#149535
19
1/
#149948
1:
10
#150000
1%
#150746
1@
#154499
1B
#154930
1R
#155221
0K
#155292
1G
#155706
0S
#155814
1M
#156151
1T
#159336
09
0/
#159771
0:
00
#160000
0"
0#
0$
0%
#160179
1;
11
#160782
0E
#160792
0@
#160802
0A
#160822
0D
#164227
0W
#164525
0Q
#164731
0J
#164751
0B
#165023
1Z
#165192
0R
#165338
0T
#165518
1K
#165555
0M
#165581
0G
#165991
1S
#166085
1M
#166415
1T
#166417
1Y
#166974
0Z
#169535
19
1/
#170000
1%
#170746
1@
#174499
1B
#175221
0K
#175292
1G
#175803
0M
#179336
09
0/
#179677
1:
10
#180000
1$
0%
#180756
1A
#180792
0@
#183958
1W
#184253
1Q
#184722
1Z
#184751
0B
#184974
0Y
#185034
0T
#185518
1K
#185558
0Z
#185581
0G
#186085
1M
#188975
0;
01
#189535
19
1/
#190000
1%
#190042
0:
00
#190746
1@
#194499
1B
#195221
0K
#195292
1G
#195803
0M
#199336
09
0/
#199677
1:
10
#200000
1#
0$
0%
#200736
1E
#200792
0@
#200802
0A
#204227
0W
#204525
0Q
#204751
0B
#205023
1Z
#205279
1Y
#205306
1T
#205518
1K
#205581
0G
#205836
0Z
#206085
1M
#209334
1;
11
#209535
19
1/
#210000
1%
#210042
0:
00
#210746
1@
#214499
1B
#215221
0K
#215292
1G
#215803
0M
#219336
09
0/
#219677
1:
10
#220000
1$
0%
#220756
1A
#220792
0@
#223958
1W
#224253
1Q
#224722
1Z
#224751
0B
#224974
0Y
#225034
0T
#225518
1K
#225558
0Z
#225581
0G
#226085
1M
#228975
0;
01
#229535
19
1/
#230000
1%
#230042
0:
00
#230746
1@
#234499
1B
#235221
0K
#235292
1G
#235803
0M
#239336
09
0/
#239677
1:
10
#240000
1"
0#
0$
0%
#240776
1D
#240782
0E
#240792
0@
#240802
0A
#244227
0W
#244478
1J
#244525
0Q
#244751
0B
#245023
1Z
#245249
1M
#245279
1Y
#245306
1T
#245518
1K
#245581
0G
#245836
0Z
#246074
0M
#249334
1;
11
#249535
19
1/
#250000
1%
#250746
1@
#254499
1B
#254930
1R
#255221
0K
#255292
1G
#255706
0S
#255814
1M
#256129
0T
#256132
0Y
#256727
1Z
#259336
09
0/
#259771
0:
00
#260000
1$
0%
#260070
0;
01
#260716
0<
02
#260756
1A
#260792
0@
#263958
1W
#264253
1Q
#264732
0Z
#264751
0B
#265002
1T
#265192
0R
#265518
1K
#265581
0G
#265991
1S
#266074
0M
#266393
0T
#268626
1<
12
#269535
19
1/
#269948
1:
10
#270000
1%
#270746
1@
#274499
1B
#274930
1R
#275221
0K
#275292
1G
#275706
0S
#275814
1M
#276151
1T
#279336
09
0/
#279771
0:
00
#280000
1#
0$
0%
#280179
1;
11
#280736
1E
#280792
0@
#280802
0A
#284227
0W
#284525
0Q
#284751
0B
#285023
1Z
#285192
0R
#285338
0T
#285518
1K
#285581
0G
#285991
1S
#286074
0M
#286415
1T
#286417
1Y
#286974
0Z
#289535
19
1/
#289948
1:
10
#290000
1%
#290746
1@
#294499
1B
#294930
1R
#295221
0K
#295292
1G
#295706
0S
#295814
1M
#296129
0T
#296132
0Y
#296727
1Z
#299336
09
0/
#299771
0:
00
#300000
1$
0%
#300070
0;
01
#300716
0<
02
#300756
1A
#300792
0@
#303958
1W
#304253
1Q
#304732
0Z
#304751
0B
#305002
1T
#305192
0R
#305518
1K
#305581
0G
#305991
1S
#306074
0M
#306393
0T
#308626
1<
12
#309535
19
1/
#309948
1:
10
#310000
1%
#310746
1@
#314499
1B
#314930
1R
#315221
0K
#315292
1G
#315706
0S
#315814
1M
#316151
1T
#319336
09
0/
#319771
0:
00
#320000
0"
0#
0$
0%
#320179
1;
11
#320782
0E
#320792
0@
#320802
0A
#320822
0D
#324227
0W
#324525
0Q
#324731
0J
#324751
0B
#325023
1Z
#325192
0R
#325338
0T
#325518
1K
#325555
0M
#325581
0G
#325991
1S
#326085
1M
#326415
1T
#326417
1Y
#326974
0Z
#329535
19
1/
#330000
1%
#330746
1@
#334499
1B
#335221
0K
#335292
1G
#335803
0M
#339336
09
0/
#339677
1:
10
#340000
1$
0%
#340756
1A
#340792
0@
#343958
1W
#344253
1Q
#344722
1Z
#344751
0B
#344974
0Y
#345034
0T
#345518
1K
#345558
0Z
#345581
0G
#346085
1M
#348975
0;
01
#349535
19
1/
#350000
1%
#350042
0:
00
#350746
1@
#354499
1B
#355221
0K
#355292
1G
#355803
0M
#359336
09
0/
#359677
1:
10
#360000
1#
0$
0%
#360736
1E
#360792
0@
#360802
0A
#364227
0W
#364525
0Q
#364751
0B
#365023
1Z
#365279
1Y
#365306
1T
#365518
1K
#365581
0G
#365836
0Z
#366085
1M
#369334
1;
11
#369535
19
1/
#370000
1%
#370042
0:
00
#370746
1@
#374499
1B
#375221
0K
#375292
1G
#375803
0M
#379336
09
0/
#379677
1:
10
#380000
1$
0%
#380756
1A
#380792
0@
#383958
1W
#384253
1Q
#384722
1Z
#384751
0B
#384974
0Y
#385034
0T
#385518
1K
#385558
0Z
#385581
0G
#386085
1M
#388975
0;
01
#389535
19
1/
#390000
1%
#390042
0:
00
#390746
1@
#394499
1B
#395221
0K
#395292
1G
#395803
0M
#399336
09
0/
#399677
1:
10
#400000
1"
0#
0$
0%
#400776
1D
#400782
0E
#400792
0@
#400802
0A
#404227
0W
#404478
1J
#404525
0Q
#404751
0B
#405023
1Z
#405249
1M
#405279
1Y
#405306
1T
#405518
1K
#405581
0G
#405836
0Z
#406074
0M
#409334
1;
11
#409535
19
1/
#410000
1%
#410746
1@
#414499
1B
#414930
1R
#415221
0K
#415292
1G
#415706
0S
#415814
1M
#416129
0T
#416132
0Y
#416727
1Z
#419336
09
0/
#419771
0:
00
#420000
1$
0%
#420070
0;
01
#420716
0<
02
#420756
1A
#420792
0@
#423958
1W
#424253
1Q
#424732
0Z
#424751
0B
#425002
1T
#425192
0R
#425518
1K
#425581
0G
#425991
1S
#426074
0M
#426393
0T
#428626
1<
12
#429535
19
1/
#429948
1:
10
#430000
1%
#430746
1@
#434499
1B
#434930
1R
#435221
0K
#435292
1G
#435706
0S
#435814
1M
#436151
1T
#439336
09
0/
#439771
0:
00
#440000
1#
0$
0%
#440179
1;
11
#440736
1E
#440792
0@
#440802
0A
#444227
0W
#444525
0Q
#444751
0B
#445023
1Z
#445192
0R
#445338
0T
#445518
1K
#445581
0G
#445991
1S
#446074
0M
#446415
1T
#446417
1Y
#446974
0Z
#449535
19
1/
#449948
1:
10
#450000
1%
#450746
1@
#454499
1B
#454930
1R
#455221
0K
#455292
1G
#455706
0S
#455814
1M
#456129
0T
#456132
0Y
#456727
1Z
#459336
09
0/
#459771
0:
00
#460000
1$
0%
#460070
0;
01
#460716
0<
02
#460756
1A
#460792
0@
#463958
1W
#464253
1Q
#464732
0Z
#464751
0B
#465002
1T
#465192
0R
#465518
1K
#465581
0G
#465991
1S
#466074
0M
#466393
0T
#468626
1<
12
#469535
19
1/
#469948
1:
10
#470000
1%
#470746
1@
#474499
1B
#474930
1R
#475221
0K
#475292
1G
#475706
0S
#475814
1M
#476151
1T
#479336
09
0/
#479771
0:
00
#480000
0"
0#
0$
0%
#480179
1;
11
#480782
0E
#480792
0@
#480802
0A
#480822
0D
#484227
0W
#484525
0Q
#484731
0J
#484751
0B
#485023
1Z
#485192
0R
#485338
0T
#485518
1K
#485555
0M
#485581
0G
#485991
1S
#486085
1M
#486415
1T
#486417
1Y
#486974
0Z
#489535
19
1/
#490000
1%
#490746
1@
#494499
1B
#495221
0K
#495292
1G
#495803
0M
#499336
09
0/
#499677
1:
10
#500000
1$
0%
#500756
1A
#500792
0@
#503958
1W
#504253
1Q
#504722
1Z
#504751
0B
#504974
0Y
#505034
0T
#505518
1K
#505558
0Z
#505581
0G
#506085
1M
#508975
0;
01
#509535
19
1/
#510000
1%
#510042
0:
00
#510746
1@
#514499
1B
#515221
0K
#515292
1G
#515803
0M
#519336
09
0/
#519677
1:
10
#520000
1#
0$
0%
#520736
1E
#520792
0@
#520802
0A
#524227
0W
#524525
0Q
#524751
0B
#525023
1Z
#525279
1Y
#525306
1T
#525518
1K
#525581
0G
#525836
0Z
#526085
1M
#529334
1;
11
#529535
19
1/
#530000
1%
#530042
0:
00
#530746
1@
#534499
1B
#535221
0K
#535292
1G
#535803
0M
#539336
09
0/
#539677
1:
10
#540000
1$
0%
#540756
1A
#540792
0@
#543958
1W
#544253
1Q
#544722
1Z
#544751
0B
#544974
0Y
#545034
0T
#545518
1K
#545558
0Z
#545581
0G
#546085
1M
#548975
0;
01
#549535
19
1/
#550000
1%
#550042
0:
00
#550746
1@
#554499
1B
#555221
0K
#555292
1G
#555803
0M
#559336
09
0/
#559677
1:
10
#560000
1"
0#
0$
0%
#560776
1D
#560782
0E
#560792
0@
#560802
0A
#564227
0W
#564478
1J
#564525
0Q
#564751
0B
#565023
1Z
#565249
1M
#565279
1Y
#565306
1T
#565518
1K
#565581
0G
#565836
0Z
#566074
0M
#569334
1;
11
#569535
19
1/
#570000
1%
#570746
1@
#574499
1B
#574930
1R
#575221
0K
#575292
1G
#575706
0S
#575814
1M
#576129
0T
#576132
0Y
#576727
1Z
#579336
09
0/
#579771
0:
00
#580000
1$
0%
#580070
0;
01
#580716
0<
02
#580756
1A
#580792
0@
#583958
1W
#584253
1Q
#584732
0Z
#584751
0B
#585002
1T
#585192
0R
#585518
1K
#585581
0G
#585991
1S
#586074
0M
#586393
0T
#588626
1<
12
#589535
19
1/
#589948
1:
10
#590000
1%
#590746
1@
#594499
1B
#594930
1R
#595221
0K
#595292
1G
#595706
0S
#595814
1M
#596151
1T
#599336
09
0/
#599771
0:
00
#600000
1#
0$
0%
#600179
1;
11
#600736
1E
#600792
0@
#600802
0A
#604227
0W
#604525
0Q
#604751
0B
#605023
1Z
#605192
0R
#605338
0T
#605518
1K
#605581
0G
#605991
1S
#606074
0M
#606415
1T
#606417
1Y
#606974
0Z
#609535
19
1/
#609948
1:
10
#610000
1%
#610746
1@
#614499
1B
#614930
1R
#615221
0K
#615292
1G
#615706
0S
#615814
1M
#616129
0T
#616132
0Y
#616727
1Z
#619336
09
0/
#619771
0:
00
#620000
1$
0%
#620070
0;
01
#620716
0<
02
#620756
1A
#620792
0@
#623958
1W
#624253
1Q
#624732
0Z
#624751
0B
#625002
1T
#625192
0R
#625518
1K
#625581
0G
#625991
1S
#626074
0M
#626393
0T
#628626
1<
12
#629535
19
1/
#629948
1:
10
#630000
1%
#630746
1@
#634499
1B
#634930
1R
#635221
0K
#635292
1G
#635706
0S
#635814
1M
#636151
1T
#639336
09
0/
#639771
0:
00
#640000
0"
0#
0$
0%
#640179
1;
11
#640782
0E
#640792
0@
#640802
0A
#640822
0D
#644227
0W
#644525
0Q
#644731
0J
#644751
0B
#645023
1Z
#645192
0R
#645338
0T
#645518
1K
#645555
0M
#645581
0G
#645991
1S
#646085
1M
#646415
1T
#646417
1Y
#646974
0Z
#649535
19
1/
#650000
1%
#650746
1@
#654499
1B
#655221
0K
#655292
1G
#655803
0M
#659336
09
0/
#659677
1:
10
#660000
1$
0%
#660756
1A
#660792
0@
#663958
1W
#664253
1Q
#664722
1Z
#664751
0B
#664974
0Y
#665034
0T
#665518
1K
#665558
0Z
#665581
0G
#666085
1M
#668975
0;
01
#669535
19
1/
#670000
1%
#670042
0:
00
#670746
1@
#674499
1B
#675221
0K
#675292
1G
#675803
0M
#679336
09
0/
#679677
1:
10
#680000
1#
0$
0%
#680736
1E
#680792
0@
#680802
0A
#684227
0W
#684525
0Q
#684751
0B
#685023
1Z
#685279
1Y
#685306
1T
#685518
1K
#685581
0G
#685836
0Z
#686085
1M
#689334
1;
11
#689535
19
1/
#690000
1%
#690042
0:
00
#690746
1@
#694499
1B
#695221
0K
#695292
1G
#695803
0M
#699336
09
0/
#699677
1:
10
#700000
1$
0%
#700756
1A
#700792
0@
#703958
1W
#704253
1Q
#704722
1Z
#704751
0B
#704974
0Y
#705034
0T
#705518
1K
#705558
0Z
#705581
0G
#706085
1M
#708975
0;
01
#709535
19
1/
#710000
1%
#710042
0:
00
#710746
1@
#714499
1B
#715221
0K
#715292
1G
#715803
0M
#719336
09
0/
#719677
1:
10
#720000
1"
0#
0$
0%
#720776
1D
#720782
0E
#720792
0@
#720802
0A
#724227
0W
#724478
1J
#724525
0Q
#724751
0B
#725023
1Z
#725249
1M
#725279
1Y
#725306
1T
#725518
1K
#725581
0G
#725836
0Z
#726074
0M
#729334
1;
11
#729535
19
1/
#730000
1%
#730746
1@
#734499
1B
#734930
1R
#735221
0K
#735292
1G
#735706
0S
#735814
1M
#736129
0T
#736132
0Y
#736727
1Z
#739336
09
0/
#739771
0:
00
#740000
1$
0%
#740070
0;
01
#740716
0<
02
#740756
1A
#740792
0@
#743958
1W
#744253
1Q
#744732
0Z
#744751
0B
#745002
1T
#745192
0R
#745518
1K
#745581
0G
#745991
1S
#746074
0M
#746393
0T
#748626
1<
12
#749535
19
1/
#749948
1:
10
#750000
1%
#750746
1@
#754499
1B
#754930
1R
#755221
0K
#755292
1G
#755706
0S
#755814
1M
#756151
1T
#759336
09
0/
#759771
0:
00
#760000
1#
0$
0%
#760179
1;
11
#760736
1E
#760792
0@
#760802
0A
#764227
0W
#764525
0Q
#764751
0B
#765023
1Z
#765192
0R
#765338
0T
#765518
1K
#765581
0G
#765991
1S
#766074
0M
#766415
1T
#766417
1Y
#766974
0Z
#769535
19
1/
#769948
1:
10
#770000
1%
#770746
1@
#774499
1B
#774930
1R
#775221
0K
#775292
1G
#775706
0S
#775814
1M
#776129
0T
#776132
0Y
#776727
1Z
#779336
09
0/
#779771
0:
00
#780000
1$
0%
#780070
0;
01
#780716
0<
02
#780756
1A
#780792
0@
#783958
1W
#784253
1Q
#784732
0Z
#784751
0B
#785002
1T
#785192
0R
#785518
1K
#785581
0G
#785991
1S
#786074
0M
#786393
0T
#788626
1<
12
#789535
19
1/
#789948
1:
10
#790000
1%
#790746
1@
#794499
1B
#794930
1R
#795221
0K
#795292
1G
#795706
0S
#795814
1M
#796151
1T
#799336
09
0/
#799771
0:
00
#800000
0"
0#
0$
0%
#800179
1;
11
#800782
0E
#800792
0@
#800802
0A
#800822
0D
#804227
0W
#804525
0Q
#804731
0J
#804751
0B
#805023
1Z
#805192
0R
#805338
0T
#805518
1K
#805555
0M
#805581
0G
#805991
1S
#806085
1M
#806415
1T
#806417
1Y
#806974
0Z
#809535
19
1/
#810000
1%
#810746
1@
#814499
1B
#815221
0K
#815292
1G
#815803
0M
#819336
09
0/
#819677
1:
10
#820000
1$
0%
#820756
1A
#820792
0@
#823958
1W
#824253
1Q
#824722
1Z
#824751
0B
#824974
0Y
#825034
0T
#825518
1K
#825558
0Z
#825581
0G
#826085
1M
#828975
0;
01
#829535
19
1/
#830000
1%
#830042
0:
00
#830746
1@
#834499
1B
#835221
0K
#835292
1G
#835803
0M
#839336
09
0/
#839677
1:
10
#840000
1#
0$
0%
#840736
1E
#840792
0@
#840802
0A
#844227
0W
#844525
0Q
#844751
0B
#845023
1Z
#845279
1Y
#845306
1T
#845518
1K
#845581
0G
#845836
0Z
#846085
1M
#849334
1;
11
#849535
19
1/
#850000
1%
#850042
0:
00
#850746
1@
#854499
1B
#855221
0K
#855292
1G
#855803
0M
#859336
09
0/
#859677
1:
10
#860000
1$
0%
#860756
1A
#860792
0@
#863958
1W
#864253
1Q
#864722
1Z
#864751
0B
#864974
0Y
#865034
0T
#865518
1K
#865558
0Z
#865581
0G
#866085
1M
#868975
0;
01
#869535
19
1/
#870000
1%
#870042
0:
00
#870746
1@
#874499
1B
#875221
0K
#875292
1G
#875803
0M
#879336
09
0/
#879677
1:
10
#880000
1"
0#
0$
0%
#880776
1D
#880782
0E
#880792
0@
#880802
0A
#884227
0W
#884478
1J
#884525
0Q
#884751
0B
#885023
1Z
#885249
1M
#885279
1Y
#885306
1T
#885518
1K
#885581
0G
#885836
0Z
#886074
0M
#889334
1;
11
#889535
19
1/
#890000
1%
#890746
1@
#894499
1B
#894930
1R
#895221
0K
#895292
1G
#895706
0S
#895814
1M
#896129
0T
#896132
0Y
#896727
1Z
#899336
09
0/
#899771
0:
00
#900000
1$
0%
#900070
0;
01
#900716
0<
02
#900756
1A
#900792
0@
#903958
1W
#904253
1Q
#904732
0Z
#904751
0B
#905002
1T
#905192
0R
#905518
1K
#905581
0G
#905991
1S
#906074
0M
#906393
0T
#908626
1<
12
#909535
19
1/
#909948
1:
10
#910000
1%
#910746
1@
#914499
1B
#914930
1R
#915221
0K
#915292
1G
#915706
0S
#915814
1M
#916151
1T
#919336
09
0/
#919771
0:
00
#920000
1#
0$
0%
#920179
1;
11
#920736
1E
#920792
0@
#920802
0A
#924227
0W
#924525
0Q
#924751
0B
#925023
1Z
#925192
0R
#925338
0T
#925518
1K
#925581
0G
#925991
1S
#926074
0M
#926415
1T
#926417
1Y
#926974
0Z
#929535
19
1/
#929948
1:
10
#930000
1%
#930746
1@
#934499
1B
#934930
1R
#935221
0K
#935292
1G
#935706
0S
#935814
1M
#936129
0T
#936132
0Y
#936727
1Z
#939336
09
0/
#939771
0:
00
#940000
1$
0%
#940070
0;
01
#940716
0<
02
#940756
1A
#940792
0@
#943958
1W
#944253
1Q
#944732
0Z
#944751
0B
#945002
1T
#945192
0R
#945518
1K
#945581
0G
#945991
1S
#946074
0M
#946393
0T
#948626
1<
12
#949535
19
1/
#949948
1:
10
#950000
1%
#950746
1@
#954499
1B
#954930
1R
#955221
0K
#955292
1G
#955706
0S
#955814
1M
#956151
1T
#959336
09
0/
#959771
0:
00
#960000
0"
0#
0$
0%
#960179
1;
11
#960782
0E
#960792
0@
#960802
0A
#960822
0D
#964227
0W
#964525
0Q
#964731
0J
#964751
0B
#965023
1Z
#965192
0R
#965338
0T
#965518
1K
#965555
0M
#965581
0G
#965991
1S
#966085
1M
#966415
1T
#966417
1Y
#966974
0Z
#969535
19
1/
#970000
1%
#970746
1@
#974499
1B
#975221
0K
#975292
1G
#975803
0M
#979336
09
0/
#979677
1:
10
#980000
1$
0%
#980756
1A
#980792
0@
#983958
1W
#984253
1Q
#984722
1Z
#984751
0B
#984974
0Y
#985034
0T
#985518
1K
#985558
0Z
#985581
0G
#986085
1M
#988975
0;
01
#989535
19
1/
#990000
1%
#990042
0:
00
#990746
1@
#994499
1B
#995221
0K
#995292
1G
#995803
0M
#999336
09
0/
#999677
1:
10
