EE 243/Lab8/simulation/qsim/Lab8.msim.vcd
$comment
	File created using the following command:
		vcd file Lab8.msim.vcd -direction
$end
$date
	Tue Nov 15 16:58:51 2022
$end
$version
	ModelSim Version 10.5b
$end
$timescale
	1ps
$end

$scope module Lab8_vlg_vec_tst $end
$var reg 1 ! CLOCK_50 $end
$var reg 1 " SW [17:17] $end
$var wire 1 # GPIO0 $end
$var wire 1 $ GPIO35 $end

$scope module i1 $end
$var wire 1 % gnd $end
$var wire 1 & vcc $end
$var wire 1 ' unknown $end
$var tri1 1 ( devclrn $end
$var tri1 1 ) devpor $end
$var tri1 1 * devoe $end
$var wire 1 + GPIO0~output_o $end
$var wire 1 , GPIO35~output_o $end
$var wire 1 - CLOCK_50~input_o $end
$var wire 1 . CLOCK_50~inputclkctrl_outclk $end
$var wire 1 / SW[17]~input_o $end
$var wire 1 0 inst|sub|120~combout $end
$var wire 1 1 inst|sub|126~combout $end
$var wire 1 2 inst|sub|122~q $end
$var wire 1 3 inst|sub|137~combout $end
$var wire 1 4 inst|sub|134~q $end
$var wire 1 5 inst2|sub|68~combout $end
$var wire 1 6 inst2|sub|34~q $end
$var wire 1 7 inst2|sub|119~0_combout $end
$var wire 1 8 inst2|sub|115~combout $end
$var wire 1 9 inst2|sub|111~q $end
$var wire 1 : inst20~0_combout $end
$var wire 1 ; inst|sub|68~combout $end
$var wire 1 < inst|sub|34~q $end
$var wire 1 = inst|sub|115~combout $end
$var wire 1 > inst|sub|111~q $end
$var wire 1 ? inst|sub|128~0_combout $end
$var wire 1 @ inst2|sub|126~0_combout $end
$var wire 1 A inst2|sub|126~combout $end
$var wire 1 B inst2|sub|122~q $end
$var wire 1 C inst1~0_combout $end
$var wire 1 D inst1~q $end
$upscope $end
$upscope $end
$enddefinitions $end
#0
$dumpvars
1!
b1 "
x#
x$
0%
1&
x'
1(
1)
1*
x+
x,
1-
x.
1/
x0
x1
02
x3
04
x5
06
x7
x8
09
x:
x;
0<
x=
0>
x?
x@
xA
0B
xC
0D
$end
#187
1.
#490
0?
#503
0C
#639
07
#641
1@
#649
00
#657
0:
#757
05
#829
0=
#1007
08
#1017
01
#1211
0A
#1235
03
#3208
1;
#3338
0+
0#
#3522
1,
1$
#10000
0!
#10826
0-
#10999
0.
#14368
0,
0$
#20000
1!
b0 "
#20720
1-
#20756
0/
#20907
1.
#23271
1<
#23700
0;
#24235
1;
#24242
1,
1$
#30000
0!
b1 "
#30650
1/
#30826
0-
#30999
0.
#33858
1=
#33869
0;
#34368
0,
0$
#40000
1!
b0 "
#40720
1-
#40756
0/
#40907
1.
#43271
0<
1>
#43680
1;
#44242
1,
1$
#44246
0;
#50000
0!
b1 "
#50650
1/
#50826
0-
#50999
0.
#53858
1;
#54368
0,
0$
#60000
1!
b0 "
#60720
1-
#60756
0/
#60907
1.
#63271
1<
#63698
10
#63700
0;
#64059
11
#64204
00
#64235
1;
#64242
1,
1$
#64572
01
#70000
0!
b1 "
#70650
1/
#70826
0-
#70999
0.
#73813
10
#73869
0;
0=
#74174
11
#74368
0,
0$
#80000
1!
b0 "
#80720
1-
#80756
0/
#80907
1.
#83271
12
0<
0>
#83680
1;
#84242
1,
1$
#84246
0;
#90000
0!
b1 "
#90650
1/
#90826
0-
#90999
0.
#93858
1;
#94368
0,
0$
#100000
1!
b0 "
#100720
1-
#100756
0/
#100907
1.
#103271
1<
#103700
0;
#104235
1;
#104242
1,
1$
#110000
0!
b1 "
#110650
1/
#110826
0-
#110999
0.
#113858
1=
#113869
0;
#114368
0,
0$
#120000
1!
b0 "
#120720
1-
#120756
0/
#120907
1.
#123271
0<
1>
#123680
1;
#124242
1,
1$
#124246
0;
#130000
0!
b1 "
#130650
1/
#130826
0-
#130999
0.
#133858
1;
#134368
0,
0$
#140000
1!
b0 "
#140720
1-
#140756
0/
#140907
1.
#143271
1<
#143682
00
#143696
1?
#143700
0;
#144050
01
#144172
0?
#144197
10
#144235
1;
#144242
1,
1$
#144378
13
#144558
11
#144917
03
#150000
0!
b1 "
#150650
1/
#150826
0-
#150999
0.
#153784
1?
#153820
00
#153869
0;
0=
#154188
01
#154368
0,
0$
#154466
13
#160000
1!
b0 "
#160720
1-
#160756
0/
#160907
1.
#163271
02
14
0<
0>
#163680
1;
#163700
03
#163761
0?
#163936
15
#164166
05
#164242
1,
1$
#164246
0;
#164495
13
#170000
0!
b1 "
#170650
1/
#170826
0-
#170999
0.
#173858
1;
#174368
0,
0$
#180000
1!
b0 "
#180720
1-
#180756
0/
#180907
1.
#183271
1<
#183700
0;
#184235
1;
#184242
1,
1$
#190000
0!
b1 "
#190650
1/
#190826
0-
#190999
0.
#193858
1=
#193869
0;
#194368
0,
0$
#200000
1!
b0 "
#200720
1-
#200756
0/
#200907
1.
#203271
0<
1>
#203680
1;
#204242
1,
1$
#204246
0;
#210000
0!
b1 "
#210650
1/
#210826
0-
#210999
0.
#213858
1;
#214368
0,
0$
#220000
1!
b0 "
#220720
1-
#220756
0/
#220907
1.
#223271
1<
#223698
10
#223700
0;
#224059
11
#224204
00
#224235
1;
#224242
1,
1$
#224572
01
#230000
0!
b1 "
#230650
1/
#230826
0-
#230999
0.
#233813
10
#233869
0;
0=
#234174
11
#234368
0,
0$
#240000
1!
b0 "
#240720
1-
#240756
0/
#240907
1.
#243271
12
0<
0>
#243680
1;
#244242
1,
1$
#244246
0;
#250000
0!
b1 "
#250650
1/
#250826
0-
#250999
0.
#253858
1;
#254368
0,
0$
#260000
1!
b0 "
#260720
1-
#260756
0/
#260907
1.
#263271
1<
#263700
0;
#264235
1;
#264242
1,
1$
#270000
0!
b1 "
#270650
1/
#270826
0-
#270999
0.
#273858
1=
#273869
0;
#274368
0,
0$
#280000
1!
b0 "
#280720
1-
#280756
0/
#280907
1.
#283271
0<
1>
#283680
1;
#284242
1,
1$
#284246
0;
#290000
0!
b1 "
#290650
1/
#290826
0-
#290999
0.
#293858
1;
#294368
0,
0$
#300000
1!
b0 "
#300720
1-
#300756
0/
#300907
1.
#303271
1<
#303682
00
#303696
1?
#303700
0;
#304050
01
#304080
15
#304172
0?
#304197
10
#304235
1;
#304242
1,
1$
#304389
03
#304558
11
#304577
05
#304906
13
#310000
0!
b1 "
#310650
1/
#310826
0-
#310999
0.
#313784
1?
#313820
00
#313869
0;
0=
#314168
15
#314188
01
#314368
0,
0$
#314477
03
#320000
1!
b0 "
#320720
1-
#320756
0/
#320907
1.
#323271
02
04
16
0<
0>
#323680
1;
13
#323761
0?
#324242
1,
1$
#324246
0;
#324506
03
#330000
0!
b1 "
#330650
1/
#330826
0-
#330999
0.
#333858
1;
#334368
0,
0$
#340000
1!
b0 "
#340720
1-
#340756
0/
#340907
1.
#343271
1<
#343700
0;
#344235
1;
#344242
1,
1$
#350000
0!
b1 "
#350650
1/
#350826
0-
#350999
0.
#353858
1=
#353869
0;
#354368
0,
0$
#360000
1!
b0 "
#360720
1-
#360756
0/
#360907
1.
#363271
0<
1>
#363680
1;
#364242
1,
1$
#364246
0;
#370000
0!
b1 "
#370650
1/
#370826
0-
#370999
0.
#373858
1;
#374368
0,
0$
#380000
1!
b0 "
#380720
1-
#380756
0/
#380907
1.
#383271
1<
#383698
10
#383700
0;
#384059
11
#384204
00
#384235
1;
#384242
1,
1$
#384572
01
#390000
0!
b1 "
#390650
1/
#390826
0-
#390999
0.
#393813
10
#393869
0;
0=
#394174
11
#394368
0,
0$
#400000
1!
b0 "
#400720
1-
#400756
0/
#400907
1.
#403271
12
0<
0>
#403680
1;
#404242
1,
1$
#404246
0;
#410000
0!
b1 "
#410650
1/
#410826
0-
#410999
0.
#413858
1;
#414368
0,
0$
#420000
1!
b0 "
#420720
1-
#420756
0/
#420907
1.
#423271
1<
#423700
0;
#424235
1;
#424242
1,
1$
#430000
0!
b1 "
#430650
1/
#430826
0-
#430999
0.
#433858
1=
#433869
0;
#434368
0,
0$
#440000
1!
b0 "
#440720
1-
#440756
0/
#440907
1.
#443271
0<
1>
#443680
1;
#444242
1,
1$
#444246
0;
#450000
0!
b1 "
#450650
1/
#450826
0-
#450999
0.
#453858
1;
#454368
0,
0$
#460000
1!
b0 "
#460720
1-
#460756
0/
#460907
1.
#463271
1<
#463682
00
#463696
1?
#463700
0;
#464050
01
#464172
0?
#464197
10
#464235
1;
#464242
1,
1$
#464378
13
#464558
11
#464917
03
#470000
0!
b1 "
#470650
1/
#470826
0-
#470999
0.
#473784
1?
#473820
00
#473869
0;
0=
#474188
01
#474368
0,
0$
#474466
13
#480000
1!
b0 "
#480720
1-
#480756
0/
#480907
1.
#483271
02
14
0<
0>
#483680
1;
#483700
03
#483761
0?
#483825
17
#483931
05
#484168
07
#484182
15
#484186
18
#484242
1,
1$
#484246
0;
#484495
13
#484536
08
#490000
0!
b1 "
#490650
1/
#490826
0-
#490999
0.
#493858
1;
#494368
0,
0$
#500000
1!
b0 "
#500720
1-
#500756
0/
#500907
1.
#503271
1<
#503700
0;
#504235
1;
#504242
1,
1$
#510000
0!
b1 "
#510650
1/
#510826
0-
#510999
0.
#513858
1=
#513869
0;
#514368
0,
0$
#520000
1!
b0 "
#520720
1-
#520756
0/
#520907
1.
#523271
0<
1>
#523680
1;
#524242
1,
1$
#524246
0;
#530000
0!
b1 "
#530650
1/
#530826
0-
#530999
0.
#533858
1;
#534368
0,
0$
#540000
1!
b0 "
#540720
1-
#540756
0/
#540907
1.
#543271
1<
#543698
10
#543700
0;
#544059
11
#544204
00
#544235
1;
#544242
1,
1$
#544572
01
#550000
0!
b1 "
#550650
1/
#550826
0-
#550999
0.
#553813
10
#553869
0;
0=
#554174
11
#554368
0,
0$
#560000
1!
b0 "
#560720
1-
#560756
0/
#560907
1.
#563271
12
0<
0>
#563680
1;
#564242
1,
1$
#564246
0;
#570000
0!
b1 "
#570650
1/
#570826
0-
#570999
0.
#573858
1;
#574368
0,
0$
#580000
1!
b0 "
#580720
1-
#580756
0/
#580907
1.
#583271
1<
#583700
0;
#584235
1;
#584242
1,
1$
#590000
0!
b1 "
#590650
1/
#590826
0-
#590999
0.
#593858
1=
#593869
0;
#594368
0,
0$
#600000
1!
b0 "
#600720
1-
#600756
0/
#600907
1.
#603271
0<
1>
#603680
1;
#604242
1,
1$
#604246
0;
#610000
0!
b1 "
#610650
1/
#610826
0-
#610999
0.
#613858
1;
#614368
0,
0$
#620000
1!
b0 "
#620720
1-
#620756
0/
#620907
1.
#623271
1<
#623682
00
#623696
1?
#623700
0;
#624050
01
#624064
05
#624081
17
#624172
0?
#624197
10
#624235
1;
#624242
1,
1$
#624389
03
#624442
18
#624558
11
#624579
07
#624593
15
#624906
13
#624947
08
#630000
0!
b1 "
#630650
1/
#630826
0-
#630999
0.
#633784
1?
#633820
00
#633869
0;
0=
#634152
05
#634169
17
#634188
01
#634368
0,
0$
#634477
03
#634530
18
#640000
1!
b0 "
#640720
1-
#640756
0/
#640907
1.
#643271
02
04
06
19
0<
0>
#643680
1;
13
#643700
08
#643761
0?
#643910
07
#644242
1,
1$
#644246
0;
#644294
18
#644506
03
#650000
0!
b1 "
#650650
1/
#650826
0-
#650999
0.
#653858
1;
#654368
0,
0$
#660000
1!
b0 "
#660720
1-
#660756
0/
#660907
1.
#663271
1<
#663700
0;
#664235
1;
#664242
1,
1$
#670000
0!
b1 "
#670650
1/
#670826
0-
#670999
0.
#673858
1=
#673869
0;
#674368
0,
0$
#680000
1!
b0 "
#680720
1-
#680756
0/
#680907
1.
#683271
0<
1>
#683680
1;
#684242
1,
1$
#684246
0;
#690000
0!
b1 "
#690650
1/
#690826
0-
#690999
0.
#693858
1;
#694368
0,
0$
#700000
1!
b0 "
#700720
1-
#700756
0/
#700907
1.
#703271
1<
#703698
10
#703700
0;
#704059
11
#704204
00
#704235
1;
#704242
1,
1$
#704572
01
#710000
0!
b1 "
#710650
1/
#710826
0-
#710999
0.
#713813
10
#713869
0;
0=
#714174
11
#714368
0,
0$
#720000
1!
b0 "
#720720
1-
#720756
0/
#720907
1.
#723271
12
0<
0>
#723680
1;
#724242
1,
1$
#724246
0;
#730000
0!
b1 "
#730650
1/
#730826
0-
#730999
0.
#733858
1;
#734368
0,
0$
#740000
1!
b0 "
#740720
1-
#740756
0/
#740907
1.
#743271
1<
#743700
0;
#744235
1;
#744242
1,
1$
#750000
0!
b1 "
#750650
1/
#750826
0-
#750999
0.
#753858
1=
#753869
0;
#754368
0,
0$
#760000
1!
b0 "
#760720
1-
#760756
0/
#760907
1.
#763271
0<
1>
#763680
1;
#764242
1,
1$
#764246
0;
#770000
0!
b1 "
#770650
1/
#770826
0-
#770999
0.
#773858
1;
#774368
0,
0$
#780000
1!
b0 "
#780720
1-
#780756
0/
#780907
1.
#783271
1<
#783682
00
#783696
1?
#783700
0;
#784050
01
#784172
0?
#784197
10
#784235
1;
#784242
1,
1$
#784378
13
#784558
11
#784917
03
#790000
0!
b1 "
#790650
1/
#790826
0-
#790999
0.
#793784
1?
#793820
00
#793869
0;
0=
#794188
01
#794368
0,
0$
#794466
13
#800000
1!
b0 "
#800720
1-
#800756
0/
#800907
1.
#803271
02
14
0<
0>
#803680
1;
#803700
03
#803761
0?
#803936
15
#804166
05
#804242
1,
1$
#804246
0;
#804495
13
#810000
0!
b1 "
#810650
1/
#810826
0-
#810999
0.
#813858
1;
#814368
0,
0$
#820000
1!
b0 "
#820720
1-
#820756
0/
#820907
1.
#823271
1<
#823700
0;
#824235
1;
#824242
1,
1$
#830000
0!
b1 "
#830650
1/
#830826
0-
#830999
0.
#833858
1=
#833869
0;
#834368
0,
0$
#840000
1!
b0 "
#840720
1-
#840756
0/
#840907
1.
#843271
0<
1>
#843680
1;
#844242
1,
1$
#844246
0;
#850000
0!
b1 "
#850650
1/
#850826
0-
#850999
0.
#853858
1;
#854368
0,
0$
#860000
1!
b0 "
#860720
1-
#860756
0/
#860907
1.
#863271
1<
#863698
10
#863700
0;
#864059
11
#864204
00
#864235
1;
#864242
1,
1$
#864572
01
#870000
0!
b1 "
#870650
1/
#870826
0-
#870999
0.
#873813
10
#873869
0;
0=
#874174
11
#874368
0,
0$
#880000
1!
b0 "
#880720
1-
#880756
0/
#880907
1.
#883271
12
0<
0>
#883680
1;
#884242
1,
1$
#884246
0;
#890000
0!
b1 "
#890650
1/
#890826
0-
#890999
0.
#893858
1;
#894368
0,
0$
#900000
1!
b0 "
#900720
1-
#900756
0/
#900907
1.
#903271
1<
#903700
0;
#904235
1;
#904242
1,
1$
#910000
0!
b1 "
#910650
1/
#910826
0-
#910999
0.
#913858
1=
#913869
0;
#914368
0,
0$
#920000
1!
b0 "
#920720
1-
#920756
0/
#920907
1.
#923271
0<
1>
#923680
1;
#924242
1,
1$
#924246
0;
#930000
0!
b1 "
#930650
1/
#930826
0-
#930999
0.
#933858
1;
#934368
0,
0$
#940000
1!
b0 "
#940720
1-
#940756
0/
#940907
1.
#943271
1<
#943682
00
#943696
1?
#943700
0;
#944050
01
#944080
15
#944172
0?
#944197
10
#944235
1;
#944242
1,
1$
#944389
03
#944558
11
#944577
05
#944906
13
#950000
0!
b1 "
#950650
1/
#950826
0-
#950999
0.
#953784
1?
#953820
00
#953869
0;
0=
#954168
15
#954188
01
#954368
0,
0$
#954477
03
#960000
1!
b0 "
#960720
1-
#960756
0/
#960907
1.
#963271
02
04
16
0<
0>
#963680
1;
13
#963761
0?
#964242
1,
1$
#964246
0;
#964506
03
#970000
0!
b1 "
#970650
1/
#970826
0-
#970999
0.
#973858
1;
#974368
0,
0$
#980000
1!
b0 "
#980720
1-
#980756
0/
#980907
1.
#983271
1<
#983700
0;
#984235
1;
#984242
1,
1$
#990000
0!
b1 "
#990650
1/
#990826
0-
#990999
0.
#993858
1=
#993869
0;
#994368
0,
0$
#1000000
1!
b0 "
#1000720
1-
#1000756
0/
#1000907
1.
#1003271
0<
1>
#1003680
1;
#1004242
1,
1$
#1004246
0;
#1010000
0!
b1 "
#1010650
1/
#1010826
0-
#1010999
0.
#1013858
1;
#1014368
0,
0$
#1020000
1!
b0 "
#1020720
1-
#1020756
0/
#1020907
1.
#1023271
1<
#1023698
10
#1023700
0;
#1024059
11
#1024204
00
#1024235
1;
#1024242
1,
1$
#1024572
01
#1030000
0!
b1 "
#1030650
1/
#1030826
0-
#1030999
0.
#1033813
10
#1033869
0;
0=
#1034174
11
#1034368
0,
0$
#1040000
1!
b0 "
#1040720
1-
#1040756
0/
#1040907
1.
#1043271
12
0<
0>
#1043680
1;
#1044242
1,
1$
#1044246
0;
#1050000
0!
b1 "
#1050650
1/
#1050826
0-
#1050999
0.
#1053858
1;
#1054368
0,
0$
#1060000
1!
b0 "
#1060720
1-
#1060756
0/
#1060907
1.
#1063271
1<
#1063700
0;
#1064235
1;
#1064242
1,
1$
#1070000
0!
b1 "
#1070650
1/
#1070826
0-
#1070999
0.
#1073858
1=
#1073869
0;
#1074368
0,
0$
#1080000
1!
b0 "
#1080720
1-
#1080756
0/
#1080907
1.
#1083271
0<
1>
#1083680
1;
#1084242
1,
1$
#1084246
0;
#1090000
0!
b1 "
#1090650
1/
#1090826
0-
#1090999
0.
#1093858
1;
#1094368
0,
0$
#1100000
1!
b0 "
#1100720
1-
#1100756
0/
#1100907
1.
#1103271
1<
#1103682
00
#1103696
1?
#1103700
0;
#1104050
01
#1104172
0?
#1104197
10
#1104235
1;
#1104242
1,
1$
#1104378
13
#1104558
11
#1104917
03
#1110000
0!
b1 "
#1110650
1/
#1110826
0-
#1110999
0.
#1113784
1?
#1113820
00
#1113869
0;
0=
#1114188
01
#1114368
0,
0$
#1114466
13
#1120000
1!
b0 "
#1120720
1-
#1120756
0/
#1120907
1.
#1123271
02
14
0<
0>
#1123680
1;
#1123700
03
#1123761
0?
#1123818
0@
#1123825
17
#1123931
05
#1124168
07
#1124170
08
#1124182
15
#1124242
1,
1$
#1124246
0;
#1124495
13
#1124552
18
#1130000
0!
b1 "
#1130650
1/
#1130826
0-
#1130999
0.
#1133858
1;
#1134368
0,
0$
#1140000
1!
b0 "
#1140720
1-
#1140756
0/
#1140907
1.
#1143271
1<
#1143700
0;
#1144235
1;
#1144242
1,
1$
#1150000
0!
b1 "
#1150650
1/
#1150826
0-
#1150999
0.
#1153858
1=
#1153869
0;
#1154368
0,
0$
#1160000
1!
b0 "
#1160720
1-
#1160756
0/
#1160907
1.
#1163271
0<
1>
#1163680
1;
#1164242
1,
1$
#1164246
0;
#1170000
0!
b1 "
#1170650
1/
#1170826
0-
#1170999
0.
#1173858
1;
#1174368
0,
0$
#1180000
1!
b0 "
#1180720
1-
#1180756
0/
#1180907
1.
#1183271
1<
#1183698
10
#1183700
0;
#1184059
11
#1184204
00
#1184235
1;
#1184242
1,
1$
#1184572
01
#1190000
0!
b1 "
#1190650
1/
#1190826
0-
#1190999
0.
#1193813
10
#1193869
0;
0=
#1194174
11
#1194368
0,
0$
#1200000
1!
b0 "
#1200720
1-
#1200756
0/
#1200907
1.
#1203271
12
0<
0>
#1203680
1;
#1204242
1,
1$
#1204246
0;
#1210000
0!
b1 "
#1210650
1/
#1210826
0-
#1210999
0.
#1213858
1;
#1214368
0,
0$
#1220000
1!
b0 "
#1220720
1-
#1220756
0/
#1220907
1.
#1223271
1<
#1223700
0;
#1224235
1;
#1224242
1,
1$
#1230000
0!
b1 "
#1230650
1/
#1230826
0-
#1230999
0.
#1233858
1=
#1233869
0;
#1234368
0,
0$
#1240000
1!
b0 "
#1240720
1-
#1240756
0/
#1240907
1.
#1243271
0<
1>
#1243680
1;
#1244242
1,
1$
#1244246
0;
#1250000
0!
b1 "
#1250650
1/
#1250826
0-
#1250999
0.
#1253858
1;
#1254368
0,
0$
#1260000
1!
b0 "
#1260720
1-
#1260756
0/
#1260907
1.
#1263271
1<
#1263682
00
#1263696
1?
#1263700
0;
#1264050
01
#1264064
05
#1264081
17
#1264172
0?
#1264197
10
#1264235
1;
#1264242
1,
1$
#1264377
1A
#1264389
03
#1264426
08
#1264558
11
#1264579
07
#1264593
15
#1264893
0A
#1264906
13
#1264963
18
#1270000
0!
b1 "
#1270650
1/
#1270826
0-
#1270999
0.
#1273784
1?
#1273820
00
#1273869
0;
0=
#1274152
05
#1274169
17
#1274188
01
#1274368
0,
0$
#1274465
1A
#1274477
03
#1274514
08
#1280000
1!
b0 "
#1280720
1-
#1280756
0/
#1280907
1.
#1283271
02
04
06
09
0<
0>
1B
#1283680
1;
18
13
#1283700
0A
#1283761
0?
#1283910
07
#1283912
1@
#1284242
1,
1$
#1284246
0;
#1284278
08
#1284495
1A
#1284506
03
#1290000
0!
b1 "
#1290650
1/
#1290826
0-
#1290999
0.
#1293858
1;
#1294368
0,
0$
#1300000
1!
b0 "
#1300720
1-
#1300756
0/
#1300907
1.
#1303271
1<
#1303700
0;
#1304235
1;
#1304242
1,
1$
#1310000
0!
b1 "
#1310650
1/
#1310826
0-
#1310999
0.
#1313858
1=
#1313869
0;
#1314368
0,
0$
#1320000
1!
b0 "
#1320720
1-
#1320756
0/
#1320907
1.
#1323271
0<
1>
#1323680
1;
#1324242
1,
1$
#1324246
0;
#1330000
0!
b1 "
#1330650
1/
#1330826
0-
#1330999
0.
#1333858
1;
#1334368
0,
0$
#1340000
1!
b0 "
#1340720
1-
#1340756
0/
#1340907
1.
#1343271
1<
#1343698
10
#1343700
0;
#1344059
11
#1344204
00
#1344235
1;
#1344242
1,
1$
#1344572
01
#1350000
0!
b1 "
#1350650
1/
#1350826
0-
#1350999
0.
#1353813
10
#1353869
0;
0=
#1354174
11
#1354368
0,
0$
#1360000
1!
b0 "
#1360720
1-
#1360756
0/
#1360907
1.
#1363271
12
0<
0>
#1363680
1;
#1364242
1,
1$
#1364246
0;
#1370000
0!
b1 "
#1370650
1/
#1370826
0-
#1370999
0.
#1373858
1;
#1374368
0,
0$
#1380000
1!
b0 "
#1380720
1-
#1380756
0/
#1380907
1.
#1383271
1<
#1383700
0;
#1384235
1;
#1384242
1,
1$
#1390000
0!
b1 "
#1390650
1/
#1390826
0-
#1390999
0.
#1393858
1=
#1393869
0;
#1394368
0,
0$
#1400000
1!
b0 "
#1400720
1-
#1400756
0/
#1400907
1.
#1403271
0<
1>
#1403680
1;
#1404242
1,
1$
#1404246
0;
#1410000
0!
b1 "
#1410650
1/
#1410826
0-
#1410999
0.
#1413858
1;
#1414368
0,
0$
#1420000
1!
b0 "
#1420720
1-
#1420756
0/
#1420907
1.
#1423271
1<
#1423682
00
#1423696
1?
#1423700
0;
#1424050
01
#1424172
0?
#1424197
10
#1424235
1;
#1424242
1,
1$
#1424378
13
#1424558
11
#1424917
03
#1430000
0!
b1 "
#1430650
1/
#1430826
0-
#1430999
0.
#1433784
1?
#1433820
00
#1433869
0;
0=
#1434188
01
#1434368
0,
0$
#1434466
13
#1440000
1!
b0 "
#1440720
1-
#1440756
0/
#1440907
1.
#1443271
02
14
0<
0>
#1443680
1;
#1443700
03
#1443761
0?
#1443936
15
#1444166
05
#1444242
1,
1$
#1444246
0;
#1444495
13
#1450000
0!
b1 "
#1450650
1/
#1450826
0-
#1450999
0.
#1453858
1;
#1454368
0,
0$
#1460000
1!
b0 "
#1460720
1-
#1460756
0/
#1460907
1.
#1463271
1<
#1463700
0;
#1464235
1;
#1464242
1,
1$
#1470000
0!
b1 "
#1470650
1/
#1470826
0-
#1470999
0.
#1473858
1=
#1473869
0;
#1474368
0,
0$
#1480000
1!
b0 "
#1480720
1-
#1480756
0/
#1480907
1.
#1483271
0<
1>
#1483680
1;
#1484242
1,
1$
#1484246
0;
#1490000
0!
b1 "
#1490650
1/
#1490826
0-
#1490999
0.
#1493858
1;
#1494368
0,
0$
#1500000
1!
b0 "
#1500720
1-
#1500756
0/
#1500907
1.
#1503271
1<
#1503698
10
#1503700
0;
#1504059
11
#1504204
00
#1504235
1;
#1504242
1,
1$
#1504572
01
#1510000
0!
b1 "
#1510650
1/
#1510826
0-
#1510999
0.
#1513813
10
#1513869
0;
0=
#1514174
11
#1514368
0,
0$
#1520000
1!
b0 "
#1520720
1-
#1520756
0/
#1520907
1.
#1523271
12
0<
0>
#1523680
1;
#1524242
1,
1$
#1524246
0;
#1530000
0!
b1 "
#1530650
1/
#1530826
0-
#1530999
0.
#1533858
1;
#1534368
0,
0$
#1540000
1!
b0 "
#1540720
1-
#1540756
0/
#1540907
1.
#1543271
1<
#1543700
0;
#1544235
1;
#1544242
1,
1$
#1550000
0!
b1 "
#1550650
1/
#1550826
0-
#1550999
0.
#1553858
1=
#1553869
0;
#1554368
0,
0$
#1560000
1!
b0 "
#1560720
1-
#1560756
0/
#1560907
1.
#1563271
0<
1>
#1563680
1;
#1564242
1,
1$
#1564246
0;
#1570000
0!
b1 "
#1570650
1/
#1570826
0-
#1570999
0.
#1573858
1;
#1574368
0,
0$
#1580000
1!
b0 "
#1580720
1-
#1580756
0/
#1580907
1.
#1583271
1<
#1583682
00
#1583696
1?
#1583700
0;
#1584050
01
#1584080
15
#1584172
0?
#1584197
10
#1584235
1;
#1584242
1,
1$
#1584389
03
#1584558
11
#1584577
05
#1584906
13
#1590000
0!
b1 "
#1590650
1/
#1590826
0-
#1590999
0.
#1593784
1?
#1593820
00
#1593869
0;
0=
#1594168
15
#1594188
01
#1594368
0,
0$
#1594477
03
#1600000
1!
b0 "
#1600720
1-
#1600756
0/
#1600907
1.
#1603271
02
04
16
0<
0>
#1603680
1;
13
#1603761
0?
#1604242
1,
1$
#1604246
0;
#1604506
03
#1610000
0!
b1 "
#1610650
1/
#1610826
0-
#1610999
0.
#1613858
1;
#1614368
0,
0$
#1620000
1!
b0 "
#1620720
1-
#1620756
0/
#1620907
1.
#1623271
1<
#1623700
0;
#1624235
1;
#1624242
1,
1$
#1630000
0!
b1 "
#1630650
1/
#1630826
0-
#1630999
0.
#1633858
1=
#1633869
0;
#1634368
0,
0$
#1640000
1!
b0 "
#1640720
1-
#1640756
0/
#1640907
1.
#1643271
0<
1>
#1643680
1;
#1644242
1,
1$
#1644246
0;
#1650000
0!
b1 "
#1650650
1/
#1650826
0-
#1650999
0.
#1653858
1;
#1654368
0,
0$
#1660000
1!
b0 "
#1660720
1-
#1660756
0/
#1660907
1.
#1663271
1<
#1663698
10
#1663700
0;
#1664059
11
#1664204
00
#1664235
1;
#1664242
1,
1$
#1664572
01
#1670000
0!
b1 "
#1670650
1/
#1670826
0-
#1670999
0.
#1673813
10
#1673869
0;
0=
#1674174
11
#1674368
0,
0$
#1680000
1!
b0 "
#1680720
1-
#1680756
0/
#1680907
1.
#1683271
12
0<
0>
#1683680
1;
#1684242
1,
1$
#1684246
0;
#1690000
0!
b1 "
#1690650
1/
#1690826
0-
#1690999
0.
#1693858
1;
#1694368
0,
0$
#1700000
1!
b0 "
#1700720
1-
#1700756
0/
#1700907
1.
#1703271
1<
#1703700
0;
#1704235
1;
#1704242
1,
1$
#1710000
0!
b1 "
#1710650
1/
#1710826
0-
#1710999
0.
#1713858
1=
#1713869
0;
#1714368
0,
0$
#1720000
1!
b0 "
#1720720
1-
#1720756
0/
#1720907
1.
#1723271
0<
1>
#1723680
1;
#1724242
1,
1$
#1724246
0;
#1730000
0!
b1 "
#1730650
1/
#1730826
0-
#1730999
0.
#1733858
1;
#1734368
0,
0$
#1740000
1!
b0 "
#1740720
1-
#1740756
0/
#1740907
1.
#1743271
1<
#1743682
00
#1743696
1?
#1743700
0;
#1744050
01
#1744172
0?
#1744197
10
#1744235
1;
#1744242
1,
1$
#1744378
13
#1744558
11
#1744917
03
#1750000
0!
b1 "
#1750650
1/
#1750826
0-
#1750999
0.
#1753784
1?
#1753820
00
#1753869
0;
0=
#1754188
01
#1754368
0,
0$
#1754466
13
#1760000
1!
b0 "
#1760720
1-
#1760756
0/
#1760907
1.
#1763271
02
14
0<
0>
#1763680
1;
#1763700
03
#1763761
0?
#1763825
17
#1763931
05
#1764168
07
#1764182
15
#1764186
18
#1764242
1,
1$
#1764246
0;
#1764495
13
#1764536
08
#1770000
0!
b1 "
#1770650
1/
#1770826
0-
#1770999
0.
#1773858
1;
#1774368
0,
0$
#1780000
1!
b0 "
#1780720
1-
#1780756
0/
#1780907
1.
#1783271
1<
#1783700
0;
#1784235
1;
#1784242
1,
1$
#1790000
0!
b1 "
#1790650
1/
#1790826
0-
#1790999
0.
#1793858
1=
#1793869
0;
#1794368
0,
0$
#1800000
1!
b0 "
#1800720
1-
#1800756
0/
#1800907
1.
#1803271
0<
1>
#1803680
1;
#1804242
1,
1$
#1804246
0;
#1810000
0!
b1 "
#1810650
1/
#1810826
0-
#1810999
0.
#1813858
1;
#1814368
0,
0$
#1820000
1!
b0 "
#1820720
1-
#1820756
0/
#1820907
1.
#1823271
1<
#1823698
10
#1823700
0;
#1824059
11
#1824204
00
#1824235
1;
#1824242
1,
1$
#1824572
01
#1830000
0!
b1 "
#1830650
1/
#1830826
0-
#1830999
0.
#1833813
10
#1833869
0;
0=
#1834174
11
#1834368
0,
0$
#1840000
1!
b0 "
#1840720
1-
#1840756
0/
#1840907
1.
#1843271
12
0<
0>
#1843680
1;
#1844242
1,
1$
#1844246
0;
#1850000
0!
b1 "
#1850650
1/
#1850826
0-
#1850999
0.
#1853858
1;
#1854368
0,
0$
#1860000
1!
b0 "
#1860720
1-
#1860756
0/
#1860907
1.
#1863271
1<
#1863700
0;
#1864235
1;
#1864242
1,
1$
#1870000
0!
b1 "
#1870650
1/
#1870826
0-
#1870999
0.
#1873858
1=
#1873869
0;
#1874368
0,
0$
#1880000
1!
b0 "
#1880720
1-
#1880756
0/
#1880907
1.
#1883271
0<
1>
#1883680
1;
#1884242
1,
1$
#1884246
0;
#1890000
0!
b1 "
#1890650
1/
#1890826
0-
#1890999
0.
#1893858
1;
#1894368
0,
0$
#1900000
1!
b0 "
#1900720
1-
#1900756
0/
#1900907
1.
