EE 243/Lab9/simulation/qsim/lab9.msim.vcd
$comment
	File created using the following command:
		vcd file lab9.msim.vcd -direction
$end
$date
	Tue Nov 22 14:25:10 2022
$end
$version
	ModelSim Version 10.5b
$end
$timescale
	1ps
$end

$scope module counter_vhd_vec_tst $end
$var wire 1 ! ClearN $end
$var wire 1 " Clock $end
$var wire 1 # Over $end
$var wire 1 $ Q [0] $end
$var wire 1 % Q [1] $end
$var wire 1 & Q [2] $end
$var wire 1 ' Q [3] $end
$var wire 1 ( Q [4] $end
$var wire 1 ) Q [5] $end
$var wire 1 * Q [6] $end
$var wire 1 + Q [7] $end
$var wire 1 , Q [8] $end

$scope module i1 $end
$var wire 1 - gnd $end
$var wire 1 . vcc $end
$var wire 1 / unknown $end
$var wire 1 0 devoe $end
$var wire 1 1 devclrn $end
$var wire 1 2 devpor $end
$var wire 1 3 ww_devoe $end
$var wire 1 4 ww_devclrn $end
$var wire 1 5 ww_devpor $end
$var wire 1 6 ww_Clock $end
$var wire 1 7 ww_ClearN $end
$var wire 1 8 ww_Q [0] $end
$var wire 1 9 ww_Q [1] $end
$var wire 1 : ww_Q [2] $end
$var wire 1 ; ww_Q [3] $end
$var wire 1 < ww_Q [4] $end
$var wire 1 = ww_Q [5] $end
$var wire 1 > ww_Q [6] $end
$var wire 1 ? ww_Q [7] $end
$var wire 1 @ ww_Q [8] $end
$var wire 1 A ww_Over $end
$var wire 1 B \ClearN~input_o\ $end
$var wire 1 C \Q[8]~output_o\ $end
$var wire 1 D \Q[7]~output_o\ $end
$var wire 1 E \Q[6]~output_o\ $end
$var wire 1 F \Q[5]~output_o\ $end
$var wire 1 G \Q[4]~output_o\ $end
$var wire 1 H \Q[3]~output_o\ $end
$var wire 1 I \Q[2]~output_o\ $end
$var wire 1 J \Q[1]~output_o\ $end
$var wire 1 K \Q[0]~output_o\ $end
$var wire 1 L \Over~output_o\ $end
$var wire 1 M \Clock~input_o\ $end
$var wire 1 N \Over~0_combout\ $end
$var wire 1 O \Over~reg0_q\ $end
$upscope $end
$upscope $end
$enddefinitions $end
#0
$dumpvars
1!
0"
0#
0-
1.
x/
10
11
12
13
14
15
06
17
0A
1B
0C
0D
0E
0F
0G
0H
0I
0J
0K
0L
0M
1N
0O
0$
0%
0&
0'
0(
0)
0*
0+
0,
08
09
0:
0;
0<
0=
0>
0?
0@
$end
#5000
1"
16
1M
1O
0N
1L
1A
1#
#10000
0"
06
0M
#15000
1"
16
1M
0O
1N
0L
0A
0#
#20000
0"
06
0M
#25000
1"
16
1M
1O
0N
1L
1A
1#
#30000
0"
06
0M
#35000
1"
16
1M
0O
1N
0L
0A
0#
#40000
0"
06
0M
#45000
1"
16
1M
1O
0N
1L
1A
1#
#50000
0"
06
0M
#55000
1"
16
1M
0O
1N
0L
0A
0#
#60000
0"
06
0M
#65000
1"
16
1M
1O
0N
1L
1A
1#
#70000
0"
06
0M
#75000
1"
16
1M
0O
1N
0L
0A
0#
#80000
0"
06
0M
#85000
1"
16
1M
1O
0N
1L
1A
1#
#90000
0"
06
0M
#95000
1"
16
1M
0O
1N
0L
0A
0#
#100000
0"
06
0M
#105000
1"
16
1M
1O
0N
1L
1A
1#
#110000
0"
06
0M
#115000
1"
16
1M
0O
1N
0L
0A
0#
#120000
0"
06
0M
#125000
1"
16
1M
1O
0N
1L
1A
1#
#130000
0"
06
0M
#135000
1"
16
1M
0O
1N
0L
0A
0#
#140000
0"
06
0M
#145000
1"
16
1M
1O
0N
1L
1A
1#
#150000
0"
06
0M
#155000
1"
16
1M
0O
1N
0L
0A
0#
#160000
0"
06
0M
#165000
1"
16
1M
1O
0N
1L
1A
1#
#170000
0"
06
0M
#175000
1"
16
1M
0O
1N
0L
0A
0#
#180000
0"
06
0M
#185000
1"
16
1M
1O
0N
1L
1A
1#
#190000
0"
06
0M
#195000
1"
16
1M
0O
1N
0L
0A
0#
#200000
0"
06
0M
#205000
1"
16
1M
1O
0N
1L
1A
1#
#210000
0"
06
0M
#215000
1"
16
1M
0O
1N
0L
0A
0#
#220000
0"
06
0M
#225000
1"
16
1M
1O
0N
1L
1A
1#
#230000
0"
06
0M
#235000
1"
16
1M
0O
1N
0L
0A
0#
#240000
0"
06
0M
#245000
1"
16
1M
1O
0N
1L
1A
1#
#250000
0"
06
0M
#255000
1"
16
1M
0O
1N
0L
0A
0#
#260000
0"
06
0M
#265000
1"
16
1M
1O
0N
1L
1A
1#
#270000
0"
06
0M
#275000
1"
16
1M
0O
1N
0L
0A
0#
#280000
0"
06
0M
#285000
1"
16
1M
1O
0N
1L
1A
1#
#290000
0"
06
0M
#295000
1"
16
1M
0O
1N
0L
0A
0#
#300000
0"
06
0M
#305000
1"
16
1M
1O
0N
1L
1A
1#
#310000
0"
06
0M
#315000
1"
16
1M
0O
1N
0L
0A
0#
#320000
0"
06
0M
#325000
1"
16
1M
1O
0N
1L
1A
1#
#330000
0"
06
0M
#335000
1"
16
1M
0O
1N
0L
0A
0#
#340000
0"
06
0M
#345000
1"
16
1M
1O
0N
1L
1A
1#
#350000
0"
06
0M
#355000
1"
16
1M
0O
1N
0L
0A
0#
#360000
0"
06
0M
#365000
1"
16
1M
1O
0N
1L
1A
1#
#370000
0"
06
0M
#375000
1"
16
1M
0O
1N
0L
0A
0#
#380000
0"
06
0M
#385000
1"
16
1M
1O
0N
1L
1A
1#
#390000
0"
06
0M
#395000
1"
16
1M
0O
1N
0L
0A
0#
#400000
0"
06
0M
#405000
1"
16
1M
1O
0N
1L
1A
1#
#410000
0"
06
0M
#415000
1"
16
1M
0O
1N
0L
0A
0#
#420000
0"
06
0M
#425000
1"
16
1M
1O
0N
1L
1A
1#
#430000
0"
06
0M
#435000
1"
16
1M
0O
1N
0L
0A
0#
#440000
0"
06
0M
#445000
1"
16
1M
1O
0N
1L
1A
1#
#450000
0"
06
0M
#455000
1"
16
1M
0O
1N
0L
0A
0#
#460000
0"
06
0M
#465000
1"
16
1M
1O
0N
1L
1A
1#
#470000
0"
06
0M
#475000
1"
16
1M
0O
1N
0L
0A
0#
#480000
0"
06
0M
#485000
1"
16
1M
1O
0N
1L
1A
1#
#490000
0"
06
0M
#495000
1"
16
1M
0O
1N
0L
0A
0#
#500000
0"
06
0M
#505000
1"
16
1M
1O
0N
1L
1A
1#
#510000
0"
06
0M
#515000
1"
16
1M
0O
1N
0L
0A
0#
#520000
0"
06
0M
#525000
1"
16
1M
1O
0N
1L
1A
1#
#530000
0"
06
0M
#535000
1"
16
1M
0O
1N
0L
0A
0#
#540000
0"
06
0M
#545000
1"
16
1M
1O
0N
1L
1A
1#
#550000
0"
06
0M
#555000
1"
16
1M
0O
1N
0L
0A
0#
#560000
0"
06
0M
#565000
1"
16
1M
1O
0N
1L
1A
1#
#570000
0"
06
0M
#575000
1"
16
1M
0O
1N
0L
0A
0#
#580000
0"
06
0M
#585000
1"
16
1M
1O
0N
1L
1A
1#
#590000
0"
06
0M
#595000
1"
16
1M
0O
1N
0L
0A
0#
#600000
0"
06
0M
#605000
1"
16
1M
1O
0N
1L
1A
1#
#610000
0"
06
0M
#615000
1"
16
1M
0O
1N
0L
0A
0#
#620000
0"
06
0M
#625000
1"
16
1M
1O
0N
1L
1A
1#
#630000
0"
06
0M
#635000
1"
16
1M
0O
1N
0L
0A
0#
#640000
0"
06
0M
#645000
1"
16
1M
1O
0N
1L
1A
1#
#650000
0"
06
0M
#655000
1"
16
1M
0O
1N
0L
0A
0#
#660000
0"
06
0M
#665000
1"
16
1M
1O
0N
1L
1A
1#
#670000
0"
06
0M
#675000
1"
16
1M
0O
1N
0L
0A
0#
#680000
0"
06
0M
#685000
1"
16
1M
1O
0N
1L
1A
1#
#690000
0"
06
0M
#695000
1"
16
1M
0O
1N
0L
0A
0#
#700000
0"
06
0M
#705000
1"
16
1M
1O
0N
1L
1A
1#
#710000
0"
06
0M
#715000
1"
16
1M
0O
1N
0L
0A
0#
#720000
0"
06
0M
#725000
1"
16
1M
1O
0N
1L
1A
1#
#730000
0"
06
0M
#735000
1"
16
1M
0O
1N
0L
0A
0#
#740000
0"
06
0M
#745000
1"
16
1M
1O
0N
1L
1A
1#
#750000
0"
06
0M
#755000
1"
16
1M
0O
1N
0L
0A
0#
#760000
0"
06
0M
#765000
1"
16
1M
1O
0N
1L
1A
1#
#770000
0"
06
0M
#775000
1"
16
1M
0O
1N
0L
0A
0#
#780000
0"
06
0M
#785000
1"
16
1M
1O
0N
1L
1A
1#
#790000
0"
06
0M
#795000
1"
16
1M
0O
1N
0L
0A
0#
#800000
0"
06
0M
#805000
1"
16
1M
1O
0N
1L
1A
1#
#810000
0"
06
0M
#815000
1"
16
1M
0O
1N
0L
0A
0#
#820000
0"
06
0M
#825000
1"
16
1M
1O
0N
1L
1A
1#
#830000
0"
06
0M
#835000
1"
16
1M
0O
1N
0L
0A
0#
#840000
0"
06
0M
#845000
1"
16
1M
1O
0N
1L
1A
1#
#850000
0"
06
0M
#855000
1"
16
1M
0O
1N
0L
0A
0#
#860000
0"
06
0M
#865000
1"
16
1M
1O
0N
1L
1A
1#
#870000
0"
06
0M
#875000
1"
16
1M
0O
1N
0L
0A
0#
#880000
0"
06
0M
#885000
1"
16
1M
1O
0N
1L
1A
1#
#890000
0"
06
0M
#895000
1"
16
1M
0O
1N
0L
0A
0#
#900000
0"
06
0M
#905000
1"
16
1M
1O
0N
1L
1A
1#
#910000
0"
06
0M
#915000
1"
16
1M
0O
1N
0L
0A
0#
#920000
0"
06
0M
#925000
1"
16
1M
1O
0N
1L
1A
1#
#930000
0"
06
0M
#935000
1"
16
1M
0O
1N
0L
0A
0#
#940000
0"
06
0M
#945000
1"
16
1M
1O
0N
1L
1A
1#
#950000
0"
06
0M
#955000
1"
16
1M
0O
1N
0L
0A
0#
#960000
0"
06
0M
#965000
1"
16
1M
1O
0N
1L
1A
1#
#970000
0"
06
0M
#975000
1"
16
1M
0O
1N
0L
0A
0#
#980000
0"
06
0M
#985000
1"
16
1M
1O
0N
1L
1A
1#
#990000
0"
06
0M
#995000
1"
16
1M
0O
1N
0L
0A
0#
